sim/log/serdes_test_20.00/serdes_test_20.00.log
# vsim -c -assertdebug -msgmode both work.tb_opt "+UVM_TESTNAME=serdes_test" "+SPEED=1" "+TRANSACTION_COUNT=5" -sv_seed 20.00 -l ../sim/log/serdes_test_20.00/serdes_test_20.00.log -do "add wave -r /*; run -all" 
# Start time: 15:23:33 on Aug 01,2025
# Loading /tmp/vandan-parekh@vandan-parekh-Victus-Gaming-Laptop-15-fa0165TX_dpi_16373/linux_gcc-7.4.0/export_tramp.so
# //  Questa Sim
# //  Version 2021.2_1 linux May 15 2021
# //
# //  Copyright 1991-2021 Mentor Graphics Corporation
# //  All Rights Reserved.
# //
# //  QuestaSim and its associated documentation contain trade
# //  secrets and commercial or financial information that are the property of
# //  Mentor Graphics Corporation and are privileged, confidential,
# //  and exempt from disclosure under the Freedom of Information Act,
# //  5 U.S.C. Section 552. Furthermore, this information
# //  is prohibited from disclosure under the Trade Secrets Act,
# //  18 U.S.C. Section 1905.
# //
# Loading sv_std.std
# Loading work.serdes_interface(fast)
# Loading mtiUvm.uvm_pkg(fast)
# Loading work.serdes_pkg(fast)
# Loading work.serdes_pkg_sv_unit(fast)
# Loading mtiUvm.questa_uvm_pkg(fast)
# Loading work.tb_top(fast)
# Loading work.serdes_interface(fast__2)
# Loading work.sipo_shift_register(fast)
# Loading work.piso_shift_register(fast)
# ** Warning: (vsim-3764) Stand-alone call to function 'get' treated as implicit void cast.
#    Time: 0 ps  Iteration: 0  Region: /serdes_pkg File: ../sv/env/serdes_agent_config.sv Line: 12
# ** Warning: (vsim-3764) Stand-alone call to function 'get' treated as implicit void cast.
#    Time: 0 ps  Iteration: 0  Region: /serdes_pkg File: ../sv/env/serdes_agent_config.sv Line: 13
# ** Warning: (vsim-8441) Clocking block output vif.driver_cb.Rx0_p is not legal in this
# or another expression.
#    Time: 0 ps  Iteration: 0  Region: /serdes_pkg::serdes_driver File: ../sv/env/serdes_driver.sv Line: 103
# ** Warning: (vsim-8441) Clocking block output vif.driver_cb.Rx0_n is not legal in this
# or another expression.
#    Time: 0 ps  Iteration: 0  Region: /serdes_pkg::serdes_driver File: ../sv/env/serdes_driver.sv Line: 104
# ** Warning: (vsim-8441) Clocking block output vif.driver_cb.Rx0_p is not legal in this
# or another expression.
#    Time: 0 ps  Iteration: 0  Region: /serdes_pkg::serdes_driver File: ../sv/env/serdes_driver.sv Line: 103
# ** Warning: (vsim-8441) Clocking block output vif.driver_cb.Rx0_n is not legal in this
# or another expression.
#    Time: 0 ps  Iteration: 0  Region: /serdes_pkg::serdes_driver File: ../sv/env/serdes_driver.sv Line: 104
# ** Warning: (vsim-8441) Clocking block output vif.driver_cb.Tx0 is not legal in this
# or another expression.
#    Time: 0 ps  Iteration: 0  Region: /serdes_pkg::serdes_driver File: ../sv/env/serdes_driver.sv Line: 115
# ** Warning: (vsim-8441) Clocking block output vif.driver_cb.Tx0 is not legal in this
# or another expression.
#    Time: 0 ps  Iteration: 0  Region: /serdes_pkg::serdes_driver File: ../sv/env/serdes_driver.sv Line: 115
# ** Warning: (vsim-8441) Clocking block output vif.driver_cb.Tx0 is not legal in this
# or another expression.
#    Time: 0 ps  Iteration: 0  Region: /serdes_pkg::serdes_driver File: ../sv/env/serdes_driver.sv Line: 115
# Compiling /tmp/vandan-parekh@vandan-parekh-Victus-Gaming-Laptop-15-fa0165TX_dpi_16373/linux_gcc-7.4.0/exportwrapper.c
# Loading /tmp/vandan-parekh@vandan-parekh-Victus-Gaming-Laptop-15-fa0165TX_dpi_16373/linux_gcc-7.4.0/vsim_auto_compile.so
# Loading /home/vandan-parekh/Downloads/Mentor_Graphics_QuestaSim_2021.2.1/installation/questasim/uvm-1.2/linux/uvm_dpi.so
# add wave -r /*
#  run -all
# UVM_INFO verilog_src/uvm-1.2/src/base/uvm_root.svh(392) @ 0: reporter [UVM/RELNOTES] 
# ----------------------------------------------------------------
# UVM-1.2
# (C) 2007-2014 Mentor Graphics Corporation
# (C) 2007-2014 Cadence Design Systems, Inc.
# (C) 2006-2014 Synopsys, Inc.
# (C) 2011-2013 Cypress Semiconductor Corp.
# (C) 2013-2014 NVIDIA Corporation
# ----------------------------------------------------------------
# 
#   ***********       IMPORTANT RELEASE NOTES         ************
# 
#   You are using a version of the UVM library that has been compiled
#   with `UVM_NO_DEPRECATED undefined.
#   See http://www.eda.org/svdb/view.php?id=3313 for more details.
# 
#   You are using a version of the UVM library that has been compiled
#   with `UVM_OBJECT_DO_NOT_NEED_CONSTRUCTOR undefined.
#   See http://www.eda.org/svdb/view.php?id=3770 for more details.
# 
#       (Specify +UVM_NO_RELNOTES to turn off this notice)
# 
# UVM_INFO verilog_src/questa_uvm_pkg-1.2/src/questa_uvm_pkg.sv(277) @ 0: reporter [Questa UVM] QUESTA_UVM-1.2.3
# UVM_INFO verilog_src/questa_uvm_pkg-1.2/src/questa_uvm_pkg.sv(278) @ 0: reporter [Questa UVM]  questa_uvm::init(+struct)
# Serdes speed is = 1000000000.000000 Hz
# Transaction count is = 5
# Serial CLK Period = 1.000000 ns
# Parallel CLK Period = 10.000000 ns
# UVM_INFO @ 0: reporter [RNTST] Running test serdes_test...
# UVM_INFO ../sv/env/../../sve/serdes_dut.sv(22) @ 0: reporter [DUT SIPO RESET] RESET CONDITION DISPLAY Serial clock [0] Rx0_p = x | Rx0_p Decimal = x |shift_reg = xxxxxxxxxx | shift_reg in decimal = x
# UVM_INFO ../sv/env/../../sve/serdes_dut.sv(120) @ 0: reporter [DUT PISO RESET CONDITION] RESET CONDITION Serial Clock [0] Tx0 = xxxxxxxxxx | Tx0 Decimal = x |Tx0_p = x | Tx0_n = x
# UVM_INFO ../sv/env/../../sve/serdes_dut.sv(52) @ 0: reporter [DUT SIPO] RESET CONDITION DISPLAY Parallel clock [0] Rx0 = xxxxxxxxxx | Rx0 Decimal = x |shift_reg = xxxxxxxxxx | shift_reg in decimal = x
# Warning: You did not provide a value for number of agents. Using default.
# [0] a = 0 and is_parallel = 1
# [0] a = 1 and is_parallel = 1
# [0] a = 2 and is_parallel = 0
# [0] a = 3 and is_parallel = 0
# Agent 0 is created
# UVM_INFO ../sv/env/serdes_env.sv(48) @ 0: uvm_test_top.env [serdes_env] agt[0].agt_cfg.is_parallel = 1 | agt[0].agt_cfg.is_active = 1
# Agent 1 is created
# UVM_INFO ../sv/env/serdes_env.sv(48) @ 0: uvm_test_top.env [serdes_env] agt[1].agt_cfg.is_parallel = 1 | agt[1].agt_cfg.is_active = 0
# Agent 2 is created
# UVM_INFO ../sv/env/serdes_env.sv(48) @ 0: uvm_test_top.env [serdes_env] agt[2].agt_cfg.is_parallel = 0 | agt[2].agt_cfg.is_active = 1
# Agent 3 is created
# UVM_INFO ../sv/env/serdes_env.sv(48) @ 0: uvm_test_top.env [serdes_env] agt[3].agt_cfg.is_parallel = 0 | agt[3].agt_cfg.is_active = 0
# UVM_INFO ../sv/env/serdes_driver.sv(27) @ 0: uvm_test_top.env.agt[0].drv [Driver Build Phase] Inside the build phase of driver class
# UVM_INFO ../sv/env/serdes_driver.sv(35) @ 0: uvm_test_top.env.agt[0].drv [serdes_driver] BUILD parallel_driver = 1
# UVM_INFO ../sv/env/../seq_lib/serdes_sequencer.sv(19) @ 0: uvm_test_top.env.agt[0].seqr [Sequencer Build Phase] Inside the build phase of sequencer class
# UVM_INFO ../sv/env/serdes_driver.sv(27) @ 0: uvm_test_top.env.agt[2].drv [Driver Build Phase] Inside the build phase of driver class
# UVM_INFO ../sv/env/serdes_driver.sv(35) @ 0: uvm_test_top.env.agt[2].drv [serdes_driver] BUILD parallel_driver = 0
# UVM_INFO ../sv/env/../seq_lib/serdes_sequencer.sv(19) @ 0: uvm_test_top.env.agt[2].seqr [Sequencer Build Phase] Inside the build phase of sequencer class
# UVM_INFO ../sv/env/serdes_driver.sv(42) @ 0: uvm_test_top.env.agt[0].drv [Driver Connect Phase] Inside the Connect Phase of driver class
# UVM_INFO ../sv/env/serdes_driver.sv(42) @ 0: uvm_test_top.env.agt[2].drv [Driver Connect Phase] Inside the Connect Phase of driver class
# UVM_INFO ../sv/env/serdes_driver.sv(49) @ 0: uvm_test_top.env.agt[0].drv [Driver EOE Phase] Inside the EOE Phase of driver class
# UVM_INFO ../sv/env/serdes_driver.sv(49) @ 0: uvm_test_top.env.agt[2].drv [Driver EOE Phase] Inside the EOE Phase of driver class
# UVM_INFO ../sv/env/../test/serdes_test.sv(32) @ 0: uvm_test_top [serdes_test] seq[0].is_parallel = 1 | env.agt[0].agt_cfg.is_parallel = 1
# UVM_INFO ../sv/env/../test/serdes_test.sv(32) @ 0: uvm_test_top [serdes_test] seq[1].is_parallel = 0 | env.agt[1].agt_cfg.is_parallel = 0
# UVM_INFO ../sv/env/serdes_monitor.sv(152) @ 0: uvm_test_top.env.agt[3].mon [serdes_monitor] TIME ANY ACTIVE = 0
# UVM_INFO ../sv/env/serdes_monitor.sv(152) @ 0: uvm_test_top.env.agt[2].mon [serdes_monitor] TIME ANY ACTIVE = 0
# UVM_INFO ../sv/env/serdes_monitor.sv(152) @ 0: uvm_test_top.env.agt[1].mon [serdes_monitor] TIME ANY ACTIVE = 0
# UVM_INFO ../sv/env/serdes_monitor.sv(159) @ 0: uvm_test_top.env.agt[1].mon [serdes_monitor] TIME PARALLEL PASSIVE = 0
# UVM_INFO ../sv/env/serdes_monitor.sv(152) @ 0: uvm_test_top.env.agt[0].mon [serdes_monitor] TIME ANY ACTIVE = 0
# UVM_INFO ../sv/env/serdes_monitor.sv(154) @ 0: uvm_test_top.env.agt[0].mon [serdes_monitor] TIME PARALLEL ACTIVE = 0
# UVM_INFO ../sv/env/../seq_lib/serdes_sequence.sv(27) @ 0: uvm_test_top.env.agt[0].seqr@@seq[0] [PRE-BODY] INSIDE PRE-BODY TASK
# UVM_INFO ../sv/env/../seq_lib/serdes_sequence.sv(28) @ 0: uvm_test_top.env.agt[0].seqr@@seq[0] [PRE_BODY] transaction_count=5, is_parallel=1
# UVM_INFO ../sv/env/../seq_lib/serdes_sequence.sv(27) @ 0: uvm_test_top.env.agt[2].seqr@@seq[1] [PRE-BODY] INSIDE PRE-BODY TASK
# UVM_INFO ../sv/env/../seq_lib/serdes_sequence.sv(28) @ 0: uvm_test_top.env.agt[2].seqr@@seq[1] [PRE_BODY] transaction_count=5, is_parallel=0
# UVM_INFO ../sv/env/../../sve/serdes_dut.sv(42) @ 1000: reporter [DUT SIPO] Serial clock [1000] Rx0_p = 0 | Rx0_p Decimal = 0 |shift_reg = 0000000000 | shift_reg in decimal = 0 | sipo_main_count = 2
# UVM_INFO ../sv/env/../../sve/serdes_dut.sv(56) @ 1000: reporter [DUT SIPO] Parallel clock [1000] Rx0 = 0000000000 | Rx0 Decimal = 0 |shift_reg = 0000000000 | shift_reg in decimal = 0 | sipo_main_count = 2
# UVM_INFO ../sv/env/../seq_lib/serdes_sequence.sv(58) @ 1000: uvm_test_top.env.agt[2].seqr@@seq[1] [BODY] Serial transaction: Rx0_p=1, Rx0_n=0
# UVM_INFO ../sv/env/../seq_lib/serdes_sequence.sv(39) @ 1000: uvm_test_top.env.agt[0].seqr@@seq[0] [BODY] Parallel transaction: Tx0 in Binary=0111011111 | Tx0 in Decimal = 479
# UVM_INFO ../sv/env/serdes_driver.sv(65) @ 1000: uvm_test_top.env.agt[2].drv [serdes_driver] after get next item req.Tx0 = 1000100001 | req.Rx0_p = 1 | req.Rx0_n = 0
# UVM_INFO ../sv/env/serdes_driver.sv(65) @ 1000: uvm_test_top.env.agt[0].drv [serdes_driver] after get next item req.Tx0 = 0111011111 | req.Rx0_p = 1 | req.Rx0_n = 0
# UVM_INFO ../sv/env/../../sve/serdes_dut.sv(42) @ 2000: reporter [DUT SIPO] Serial clock [2000] Rx0_p = 0 | Rx0_p Decimal = 0 |shift_reg = 0000000000 | shift_reg in decimal = 0 | sipo_main_count = 3
# UVM_INFO ../sv/env/../../sve/serdes_dut.sv(126) @ 2000: reporter [DUT PISO] Serial Clock [2000] Tx0 = 0000000000 | Tx0 Decimal = 0 |Tx0_p = 0 | Tx0_n = 1
# main_Count = 2
# I = 1
# UVM_INFO ../sv/env/serdes_monitor.sv(176) @ 2000: uvm_test_top.env.agt[3].mon [serdes_monitor] TIME SERIAL = 2000
# UVM_INFO ../sv/env/serdes_driver.sv(106) @ 2000: uvm_test_top.env.agt[2].drv [serdes_driver] After parallel drive DRIV_IF.Rx0_p = 1 | DRIV_IF.Rx0_n = 0
# UVM_INFO ../sv/env/../seq_lib/serdes_sequence.sv(58) @ 2000: uvm_test_top.env.agt[2].seqr@@seq[1] [BODY] Serial transaction: Rx0_p=0, Rx0_n=1
# UVM_INFO ../sv/env/serdes_driver.sv(65) @ 2000: uvm_test_top.env.agt[2].drv [serdes_driver] after get next item req.Tx0 = 0111011001 | req.Rx0_p = 0 | req.Rx0_n = 1
# UVM_INFO ../sv/env/../../sve/serdes_dut.sv(42) @ 3000: reporter [DUT SIPO] Serial clock [3000] Rx0_p = 1 | Rx0_p Decimal = 1 |shift_reg = 0000000000 | shift_reg in decimal = 0 | sipo_main_count = 4
# UVM_INFO ../sv/env/../../sve/serdes_dut.sv(126) @ 3000: reporter [DUT PISO] Serial Clock [3000] Tx0 = 0000000000 | Tx0 Decimal = 0 |Tx0_p = 0 | Tx0_n = 1
# main_Count = 3
# I = 2
# UVM_INFO ../sv/env/serdes_monitor.sv(170) @ 3000: uvm_test_top.env.agt[2].mon [serdes_monitor] TIME SERIAL ACTIVE = 3000
# UVM_INFO ../sv/env/serdes_monitor.sv(73) @ 3000: uvm_test_top.env.agt[3].mon [serdes_monitor] PASSIVE SERIAL MONITOR serial data | mon_pkt.Tx0_p = 0 | mon_pkt.Tx0_n = 1 | count2 = 0
# UVM_INFO ../sv/env/serdes_driver.sv(106) @ 3000: uvm_test_top.env.agt[2].drv [serdes_driver] After parallel drive DRIV_IF.Rx0_p = 0 | DRIV_IF.Rx0_n = 1
# UVM_INFO ../sv/env/../seq_lib/serdes_sequence.sv(58) @ 3000: uvm_test_top.env.agt[2].seqr@@seq[1] [BODY] Serial transaction: Rx0_p=0, Rx0_n=1
# UVM_INFO ../sv/env/serdes_driver.sv(65) @ 3000: uvm_test_top.env.agt[2].drv [serdes_driver] after get next item req.Tx0 = 1110010100 | req.Rx0_p = 0 | req.Rx0_n = 1
# UVM_INFO ../sv/env/../../sve/serdes_dut.sv(42) @ 4000: reporter [DUT SIPO] Serial clock [4000] Rx0_p = 0 | Rx0_p Decimal = 0 |shift_reg = 0000000001 | shift_reg in decimal = 1 | sipo_main_count = 5
# UVM_INFO ../sv/env/../../sve/serdes_dut.sv(126) @ 4000: reporter [DUT PISO] Serial Clock [4000] Tx0 = 0000000000 | Tx0 Decimal = 0 |Tx0_p = 0 | Tx0_n = 1
# main_Count = 4
# I = 3
# UVM_INFO ../sv/env/serdes_monitor.sv(73) @ 4000: uvm_test_top.env.agt[3].mon [serdes_monitor] PASSIVE SERIAL MONITOR serial data | mon_pkt.Tx0_p = 0 | mon_pkt.Tx0_n = 1 | count2 = 1
# UVM_INFO ../sv/env/serdes_monitor.sv(60) @ 4000: uvm_test_top.env.agt[2].mon [serdes_monitor] ACTIVE SERIAL MONITOR serial data | mon_pkt.Rx0_p = 1 | mon_pkt.Rx0_n = 0
# UVM_INFO ../sv/env/serdes_driver.sv(106) @ 4000: uvm_test_top.env.agt[2].drv [serdes_driver] After parallel drive DRIV_IF.Rx0_p = 0 | DRIV_IF.Rx0_n = 1
# UVM_INFO ../sv/env/../seq_lib/serdes_sequence.sv(58) @ 4000: uvm_test_top.env.agt[2].seqr@@seq[1] [BODY] Serial transaction: Rx0_p=1, Rx0_n=0
# UVM_INFO ../sv/env/serdes_driver.sv(65) @ 4000: uvm_test_top.env.agt[2].drv [serdes_driver] after get next item req.Tx0 = 0000001101 | req.Rx0_p = 1 | req.Rx0_n = 0
# UVM_INFO ../sv/env/../../sve/serdes_dut.sv(42) @ 5000: reporter [DUT SIPO] Serial clock [5000] Rx0_p = 0 | Rx0_p Decimal = 0 |shift_reg = 0000000010 | shift_reg in decimal = 2 | sipo_main_count = 6
# UVM_INFO ../sv/env/../../sve/serdes_dut.sv(126) @ 5000: reporter [DUT PISO] Serial Clock [5000] Tx0 = 0000000000 | Tx0 Decimal = 0 |Tx0_p = 0 | Tx0_n = 1
# main_Count = 5
# I = 4
# UVM_INFO ../sv/env/serdes_monitor.sv(60) @ 5000: uvm_test_top.env.agt[2].mon [serdes_monitor] ACTIVE SERIAL MONITOR serial data | mon_pkt.Rx0_p = 0 | mon_pkt.Rx0_n = 1
# UVM_INFO ../sv/env/serdes_monitor.sv(73) @ 5000: uvm_test_top.env.agt[3].mon [serdes_monitor] PASSIVE SERIAL MONITOR serial data | mon_pkt.Tx0_p = 0 | mon_pkt.Tx0_n = 1 | count2 = 2
# UVM_INFO ../sv/env/serdes_driver.sv(106) @ 5000: uvm_test_top.env.agt[2].drv [serdes_driver] After parallel drive DRIV_IF.Rx0_p = 1 | DRIV_IF.Rx0_n = 0
# UVM_INFO ../sv/env/../seq_lib/serdes_sequence.sv(58) @ 5000: uvm_test_top.env.agt[2].seqr@@seq[1] [BODY] Serial transaction: Rx0_p=0, Rx0_n=1
# UVM_INFO ../sv/env/serdes_driver.sv(65) @ 5000: uvm_test_top.env.agt[2].drv [serdes_driver] after get next item req.Tx0 = 0000011100 | req.Rx0_p = 0 | req.Rx0_n = 1
# UVM_INFO ../sv/env/../../sve/serdes_dut.sv(42) @ 6000: reporter [DUT SIPO] Serial clock [6000] Rx0_p = 1 | Rx0_p Decimal = 1 |shift_reg = 0000000100 | shift_reg in decimal = 4 | sipo_main_count = 7
# UVM_INFO ../sv/env/../../sve/serdes_dut.sv(126) @ 6000: reporter [DUT PISO] Serial Clock [6000] Tx0 = 0000000000 | Tx0 Decimal = 0 |Tx0_p = 0 | Tx0_n = 1
# main_Count = 6
# I = 5
# UVM_INFO ../sv/env/serdes_monitor.sv(73) @ 6000: uvm_test_top.env.agt[3].mon [serdes_monitor] PASSIVE SERIAL MONITOR serial data | mon_pkt.Tx0_p = 0 | mon_pkt.Tx0_n = 1 | count2 = 3
# UVM_INFO ../sv/env/serdes_monitor.sv(60) @ 6000: uvm_test_top.env.agt[2].mon [serdes_monitor] ACTIVE SERIAL MONITOR serial data | mon_pkt.Rx0_p = 0 | mon_pkt.Rx0_n = 1
# UVM_INFO ../sv/env/serdes_driver.sv(106) @ 6000: uvm_test_top.env.agt[2].drv [serdes_driver] After parallel drive DRIV_IF.Rx0_p = 0 | DRIV_IF.Rx0_n = 1
# UVM_INFO ../sv/env/../seq_lib/serdes_sequence.sv(58) @ 6000: uvm_test_top.env.agt[2].seqr@@seq[1] [BODY] Serial transaction: Rx0_p=1, Rx0_n=0
# UVM_INFO ../sv/env/serdes_driver.sv(65) @ 6000: uvm_test_top.env.agt[2].drv [serdes_driver] after get next item req.Tx0 = 1100111000 | req.Rx0_p = 1 | req.Rx0_n = 0
# UVM_INFO ../sv/env/../../sve/serdes_dut.sv(42) @ 7000: reporter [DUT SIPO] Serial clock [7000] Rx0_p = 0 | Rx0_p Decimal = 0 |shift_reg = 0000001001 | shift_reg in decimal = 9 | sipo_main_count = 8
# UVM_INFO ../sv/env/../../sve/serdes_dut.sv(126) @ 7000: reporter [DUT PISO] Serial Clock [7000] Tx0 = 0000000000 | Tx0 Decimal = 0 |Tx0_p = 0 | Tx0_n = 1
# main_Count = 7
# I = 6
# UVM_INFO ../sv/env/serdes_monitor.sv(60) @ 7000: uvm_test_top.env.agt[2].mon [serdes_monitor] ACTIVE SERIAL MONITOR serial data | mon_pkt.Rx0_p = 1 | mon_pkt.Rx0_n = 0
# UVM_INFO ../sv/env/serdes_monitor.sv(73) @ 7000: uvm_test_top.env.agt[3].mon [serdes_monitor] PASSIVE SERIAL MONITOR serial data | mon_pkt.Tx0_p = 0 | mon_pkt.Tx0_n = 1 | count2 = 4
# UVM_INFO ../sv/env/serdes_driver.sv(106) @ 7000: uvm_test_top.env.agt[2].drv [serdes_driver] After parallel drive DRIV_IF.Rx0_p = 1 | DRIV_IF.Rx0_n = 0
# UVM_INFO ../sv/env/../seq_lib/serdes_sequence.sv(58) @ 7000: uvm_test_top.env.agt[2].seqr@@seq[1] [BODY] Serial transaction: Rx0_p=1, Rx0_n=0
# UVM_INFO ../sv/env/serdes_driver.sv(65) @ 7000: uvm_test_top.env.agt[2].drv [serdes_driver] after get next item req.Tx0 = 0010000101 | req.Rx0_p = 1 | req.Rx0_n = 0
# UVM_INFO ../sv/env/../../sve/serdes_dut.sv(42) @ 8000: reporter [DUT SIPO] Serial clock [8000] Rx0_p = 1 | Rx0_p Decimal = 1 |shift_reg = 0000010010 | shift_reg in decimal = 18 | sipo_main_count = 9
# UVM_INFO ../sv/env/../../sve/serdes_dut.sv(126) @ 8000: reporter [DUT PISO] Serial Clock [8000] Tx0 = 0000000000 | Tx0 Decimal = 0 |Tx0_p = 0 | Tx0_n = 1
# main_Count = 8
# I = 7
# UVM_INFO ../sv/env/serdes_monitor.sv(73) @ 8000: uvm_test_top.env.agt[3].mon [serdes_monitor] PASSIVE SERIAL MONITOR serial data | mon_pkt.Tx0_p = 0 | mon_pkt.Tx0_n = 1 | count2 = 5
# UVM_INFO ../sv/env/serdes_monitor.sv(60) @ 8000: uvm_test_top.env.agt[2].mon [serdes_monitor] ACTIVE SERIAL MONITOR serial data | mon_pkt.Rx0_p = 0 | mon_pkt.Rx0_n = 1
# UVM_INFO ../sv/env/serdes_driver.sv(106) @ 8000: uvm_test_top.env.agt[2].drv [serdes_driver] After parallel drive DRIV_IF.Rx0_p = 1 | DRIV_IF.Rx0_n = 0
# UVM_INFO ../sv/env/../seq_lib/serdes_sequence.sv(58) @ 8000: uvm_test_top.env.agt[2].seqr@@seq[1] [BODY] Serial transaction: Rx0_p=1, Rx0_n=0
# UVM_INFO ../sv/env/serdes_driver.sv(65) @ 8000: uvm_test_top.env.agt[2].drv [serdes_driver] after get next item req.Tx0 = 1011110111 | req.Rx0_p = 1 | req.Rx0_n = 0
# UVM_INFO ../sv/env/../../sve/serdes_dut.sv(42) @ 9000: reporter [DUT SIPO] Serial clock [9000] Rx0_p = 1 | Rx0_p Decimal = 1 |shift_reg = 0000100101 | shift_reg in decimal = 37 | sipo_main_count = 10
# UVM_INFO ../sv/env/../../sve/serdes_dut.sv(126) @ 9000: reporter [DUT PISO] Serial Clock [9000] Tx0 = 0000000000 | Tx0 Decimal = 0 |Tx0_p = 0 | Tx0_n = 1
# main_Count = 9
# I = 8
# UVM_INFO ../sv/env/serdes_monitor.sv(60) @ 9000: uvm_test_top.env.agt[2].mon [serdes_monitor] ACTIVE SERIAL MONITOR serial data | mon_pkt.Rx0_p = 1 | mon_pkt.Rx0_n = 0
# UVM_INFO ../sv/env/serdes_monitor.sv(73) @ 9000: uvm_test_top.env.agt[3].mon [serdes_monitor] PASSIVE SERIAL MONITOR serial data | mon_pkt.Tx0_p = 0 | mon_pkt.Tx0_n = 1 | count2 = 6
# UVM_INFO ../sv/env/serdes_driver.sv(106) @ 9000: uvm_test_top.env.agt[2].drv [serdes_driver] After parallel drive DRIV_IF.Rx0_p = 1 | DRIV_IF.Rx0_n = 0
# UVM_INFO ../sv/env/../seq_lib/serdes_sequence.sv(58) @ 9000: uvm_test_top.env.agt[2].seqr@@seq[1] [BODY] Serial transaction: Rx0_p=0, Rx0_n=1
# UVM_INFO ../sv/env/serdes_driver.sv(65) @ 9000: uvm_test_top.env.agt[2].drv [serdes_driver] after get next item req.Tx0 = 0001000110 | req.Rx0_p = 0 | req.Rx0_n = 1
# UVM_INFO ../sv/env/../../sve/serdes_dut.sv(42) @ 10000: reporter [DUT SIPO] Serial clock [10000] Rx0_p = 1 | Rx0_p Decimal = 1 |shift_reg = 0001001011 | shift_reg in decimal = 75 | sipo_main_count = 11
# UVM_INFO ../sv/env/../../sve/serdes_dut.sv(126) @ 10000: reporter [DUT PISO] Serial Clock [10000] Tx0 = 0000000000 | Tx0 Decimal = 0 |Tx0_p = 0 | Tx0_n = 1
# main_Count = 10
# I = 9
# UVM_INFO ../sv/env/serdes_monitor.sv(73) @ 10000: uvm_test_top.env.agt[3].mon [serdes_monitor] PASSIVE SERIAL MONITOR serial data | mon_pkt.Tx0_p = 0 | mon_pkt.Tx0_n = 1 | count2 = 7
# UVM_INFO ../sv/env/serdes_monitor.sv(60) @ 10000: uvm_test_top.env.agt[2].mon [serdes_monitor] ACTIVE SERIAL MONITOR serial data | mon_pkt.Rx0_p = 1 | mon_pkt.Rx0_n = 0
# UVM_INFO ../sv/env/serdes_driver.sv(106) @ 10000: uvm_test_top.env.agt[2].drv [serdes_driver] After parallel drive DRIV_IF.Rx0_p = 0 | DRIV_IF.Rx0_n = 1
# UVM_INFO ../sv/env/../seq_lib/serdes_sequence.sv(58) @ 10000: uvm_test_top.env.agt[2].seqr@@seq[1] [BODY] Serial transaction: Rx0_p=1, Rx0_n=0
# UVM_INFO ../sv/env/serdes_driver.sv(65) @ 10000: uvm_test_top.env.agt[2].drv [serdes_driver] after get next item req.Tx0 = 0000101010 | req.Rx0_p = 1 | req.Rx0_n = 0
# UVM_INFO ../sv/env/../../sve/serdes_dut.sv(42) @ 11000: reporter [DUT SIPO] Serial clock [11000] Rx0_p = 0 | Rx0_p Decimal = 0 |shift_reg = 0010010111 | shift_reg in decimal = 151 | sipo_main_count = 12
# UVM_INFO ../sv/env/../../sve/serdes_dut.sv(126) @ 11000: reporter [DUT PISO] Serial Clock [11000] Tx0 = 0000000000 | Tx0 Decimal = 0 |Tx0_p = 0 | Tx0_n = 1
# main_Count = 11
# I = 10
# UVM_INFO ../sv/env/../../sve/serdes_dut.sv(56) @ 11000: reporter [DUT SIPO] Parallel clock [11000] Rx0 = 0000000000 | Rx0 Decimal = 0 |shift_reg = 0010010111 | shift_reg in decimal = 151 | sipo_main_count = 12
# UVM_INFO ../sv/env/serdes_driver.sv(117) @ 11000: uvm_test_top.env.agt[0].drv [serdes_driver] After parallel drive DRIV_IF.Tx0 = 0111011111 | DRIV_IF.Tx0 = 479
# UVM_INFO ../sv/env/serdes_monitor.sv(163) @ 11000: uvm_test_top.env.agt[1].mon [serdes_monitor] TIME PARALLEL PASSIVE = 11000
# UVM_INFO ../sv/env/serdes_monitor.sv(37) @ 11000: uvm_test_top.env.agt[0].mon [serdes_monitor] ACTIVE_PARALLEL_MONITOR mon_pkt.Tx0 = 0000000000 | mon_pkt.Tx0 = 0
# UVM_INFO ../sv/env/serdes_monitor.sv(188) @ 11000: uvm_test_top.env.agt[0].mon [serdes_monitor] Sending transaction: Tx0=0000000000, Rx0=0000000000, mon_parallel_Tx0=0000000000, mon_parallel_Rx0=0000000000
# UVM_INFO ../sv/env/serdes_scoreboard.sv(39) @ 11000: uvm_test_top.env.scb[0] [serdes_scoreboard] SCOREBOARD Received expected transaction: Tx0=0000000000, mon_parallel_Tx0=0000000000
# UVM_INFO ../sv/env/serdes_scoreboard.sv(42) @ 11000: uvm_test_top.env.scb[0] [serdes_scoreboard] Received expected transaction: Tx0=0000000000, mon_parallel_Tx0=0000000000
# UVM_INFO ../sv/env/serdes_monitor.sv(60) @ 11000: uvm_test_top.env.agt[2].mon [serdes_monitor] ACTIVE SERIAL MONITOR serial data | mon_pkt.Rx0_p = 1 | mon_pkt.Rx0_n = 0
# UVM_INFO ../sv/env/serdes_monitor.sv(73) @ 11000: uvm_test_top.env.agt[3].mon [serdes_monitor] PASSIVE SERIAL MONITOR serial data | mon_pkt.Tx0_p = 0 | mon_pkt.Tx0_n = 1 | count2 = 8
# UVM_INFO ../sv/env/serdes_driver.sv(106) @ 11000: uvm_test_top.env.agt[2].drv [serdes_driver] After parallel drive DRIV_IF.Rx0_p = 1 | DRIV_IF.Rx0_n = 0
# UVM_INFO ../sv/env/../seq_lib/serdes_sequence.sv(58) @ 11000: uvm_test_top.env.agt[2].seqr@@seq[1] [BODY] Serial transaction: Rx0_p=1, Rx0_n=0
# UVM_INFO ../sv/env/../seq_lib/serdes_sequence.sv(39) @ 11000: uvm_test_top.env.agt[0].seqr@@seq[0] [BODY] Parallel transaction: Tx0 in Binary=1001000010 | Tx0 in Decimal = 578
# UVM_INFO ../sv/env/serdes_driver.sv(65) @ 11000: uvm_test_top.env.agt[2].drv [serdes_driver] after get next item req.Tx0 = 0010011101 | req.Rx0_p = 1 | req.Rx0_n = 0
# UVM_INFO ../sv/env/serdes_driver.sv(65) @ 11000: uvm_test_top.env.agt[0].drv [serdes_driver] after get next item req.Tx0 = 1001000010 | req.Rx0_p = 0 | req.Rx0_n = 1
# UVM_INFO ../sv/env/../../sve/serdes_dut.sv(42) @ 12000: reporter [DUT SIPO] Serial clock [12000] Rx0_p = 1 | Rx0_p Decimal = 1 |shift_reg = 0100101110 | shift_reg in decimal = 302 | sipo_main_count = 13
# UVM_INFO ../sv/env/../../sve/serdes_dut.sv(126) @ 12000: reporter [DUT PISO] Serial Clock [12000] Tx0 = 0111011111 | Tx0 Decimal = 479 |Tx0_p = 0 | Tx0_n = 1
# main_Count = 2
# I = 1
# UVM_INFO ../sv/env/serdes_monitor.sv(73) @ 12000: uvm_test_top.env.agt[3].mon [serdes_monitor] PASSIVE SERIAL MONITOR serial data | mon_pkt.Tx0_p = 0 | mon_pkt.Tx0_n = 1 | count2 = 9
# UVM_INFO ../sv/env/serdes_monitor.sv(76) @ 12000: uvm_test_top.env.agt[3].mon [serdes_monitor] HELLO monitor converting serial data into parallel data | mon_pkt.mon_parallel_Tx0 = 0000000000 | mon_pkt.mon_parallel_Tx0 = 0
