vip/sim/log/serdes_test_5000/serdes_test_5000.log
# vsim -c -assertdebug -msgmode both work.tb_opt "+UVM_TESTNAME=serdes_test" "+SPEED=1" "+SERIAL_TRANSACTION_COUNT=5" "+PARALLEL_TRANSACTION_COUNT=5" "+NO_OF_AGENTS=4" -sv_seed 5000 -l ../sim/log/serdes_test_5000/serdes_test_5000.log -do "add wave -r /*; run -all" 
# Start time: 11:45:44 on Aug 04,2025
# Loading /tmp/vandan-parekh@vandan-parekh-Victus-Gaming-Laptop-15-fa0165TX_dpi_12790/linux_gcc-7.4.0/export_tramp.so
# //  Questa Sim
# //  Version 2021.2_1 linux May 15 2021
# //
# //  Copyright 1991-2021 Mentor Graphics Corporation
# //  All Rights Reserved.
# //
# //  QuestaSim and its associated documentation contain trade
# //  secrets and commercial or financial information that are the property of
# //  Mentor Graphics Corporation and are privileged, confidential,
# //  and exempt from disclosure under the Freedom of Information Act,
# //  5 U.S.C. Section 552. Furthermore, this information
# //  is prohibited from disclosure under the Trade Secrets Act,
# //  18 U.S.C. Section 1905.
# //
# Loading sv_std.std
# Loading work.serdes_interface(fast)
# Loading mtiUvm.uvm_pkg(fast)
# Loading work.serdes_pkg(fast)
# Loading work.serdes_pkg_sv_unit(fast)
# Loading mtiUvm.questa_uvm_pkg(fast)
# Loading work.tb_top(fast)
# Loading work.serdes_interface(fast__2)
# Loading work.sipo_shift_register(fast)
# Loading work.piso_shift_register(fast)
# ** Warning: (vsim-8441) Clocking block output vif.driver_cb.Rx0_p is not legal in this
# or another expression.
#    Time: 0 ps  Iteration: 0  Region: /serdes_pkg::serdes_driver File: ../sv/env/serdes_driver.sv Line: 102
# ** Warning: (vsim-8441) Clocking block output vif.driver_cb.Rx0_n is not legal in this
# or another expression.
#    Time: 0 ps  Iteration: 0  Region: /serdes_pkg::serdes_driver File: ../sv/env/serdes_driver.sv Line: 103
# ** Warning: (vsim-8441) Clocking block output vif.driver_cb.Rx0_p is not legal in this
# or another expression.
#    Time: 0 ps  Iteration: 0  Region: /serdes_pkg::serdes_driver File: ../sv/env/serdes_driver.sv Line: 102
# ** Warning: (vsim-8441) Clocking block output vif.driver_cb.Rx0_n is not legal in this
# or another expression.
#    Time: 0 ps  Iteration: 0  Region: /serdes_pkg::serdes_driver File: ../sv/env/serdes_driver.sv Line: 103
# ** Warning: (vsim-8441) Clocking block output vif.driver_cb.Tx0 is not legal in this
# or another expression.
#    Time: 0 ps  Iteration: 0  Region: /serdes_pkg::serdes_driver File: ../sv/env/serdes_driver.sv Line: 111
# ** Warning: (vsim-8441) Clocking block output vif.driver_cb.Tx0 is not legal in this
# or another expression.
#    Time: 0 ps  Iteration: 0  Region: /serdes_pkg::serdes_driver File: ../sv/env/serdes_driver.sv Line: 111
# ** Warning: (vsim-8441) Clocking block output vif.driver_cb.Tx0 is not legal in this
# or another expression.
#    Time: 0 ps  Iteration: 0  Region: /serdes_pkg::serdes_driver File: ../sv/env/serdes_driver.sv Line: 111
# Compiling /tmp/vandan-parekh@vandan-parekh-Victus-Gaming-Laptop-15-fa0165TX_dpi_12790/linux_gcc-7.4.0/exportwrapper.c
# Loading /tmp/vandan-parekh@vandan-parekh-Victus-Gaming-Laptop-15-fa0165TX_dpi_12790/linux_gcc-7.4.0/vsim_auto_compile.so
# Loading /home/vandan-parekh/Downloads/Mentor_Graphics_QuestaSim_2021.2.1/installation/questasim/uvm-1.2/linux/uvm_dpi.so
# add wave -r /*
#  run -all
# UVM_INFO verilog_src/uvm-1.2/src/base/uvm_root.svh(392) @ 0: reporter [UVM/RELNOTES] 
# ----------------------------------------------------------------
# UVM-1.2
# (C) 2007-2014 Mentor Graphics Corporation
# (C) 2007-2014 Cadence Design Systems, Inc.
# (C) 2006-2014 Synopsys, Inc.
# (C) 2011-2013 Cypress Semiconductor Corp.
# (C) 2013-2014 NVIDIA Corporation
# ----------------------------------------------------------------
# 
#   ***********       IMPORTANT RELEASE NOTES         ************
# 
#   You are using a version of the UVM library that has been compiled
#   with `UVM_NO_DEPRECATED undefined.
#   See http://www.eda.org/svdb/view.php?id=3313 for more details.
# 
#   You are using a version of the UVM library that has been compiled
#   with `UVM_OBJECT_DO_NOT_NEED_CONSTRUCTOR undefined.
#   See http://www.eda.org/svdb/view.php?id=3770 for more details.
# 
#       (Specify +UVM_NO_RELNOTES to turn off this notice)
# 
# UVM_INFO verilog_src/questa_uvm_pkg-1.2/src/questa_uvm_pkg.sv(277) @ 0: reporter [Questa UVM] QUESTA_UVM-1.2.3
# UVM_INFO verilog_src/questa_uvm_pkg-1.2/src/questa_uvm_pkg.sv(278) @ 0: reporter [Questa UVM]  questa_uvm::init(+struct)
# Serdes speed is = 1000000000.000000 Hz
# Transaction count is = 5
# Transaction count is = 5
# Number of agents is = 4
# Serial CLK Period = 1.000000 ns
# Parallel CLK Period = 10.000000 ns
# UVM_INFO @ 0: reporter [RNTST] Running test serdes_test...
# UVM_INFO ../sv/env/../../sve/serdes_dut.sv(22) @ 0: reporter [DUT SIPO RESET] RESET CONDITION DISPLAY Serial clock [0] Rx0_p = x | Rx0_p Decimal = x |shift_reg = xxxxxxxxxx | shift_reg in decimal = x
# UVM_INFO ../sv/env/../../sve/serdes_dut.sv(107) @ 0: reporter [DUT PISO RESET CONDITION] RESET CONDITION Serial Clock [0] Tx0 = xxxxxxxxxx | Tx0 Decimal = x |Tx0_p = x | Tx0_n = x
# UVM_INFO ../sv/env/serdes_agent_config.sv(33) @ 0: reporter [serdes_agent_config] current_agt_no = 0 and is_parallel = 1
# UVM_INFO ../sv/env/serdes_agent_config.sv(33) @ 0: reporter [serdes_agent_config] current_agt_no = 1 and is_parallel = 1
# UVM_INFO ../sv/env/serdes_env.sv(61) @ 0: uvm_test_top.env [serdes_env] agt[0].agt_cfg.is_parallel = 1 | agt[0].agt_cfg.is_active = 1
# UVM_INFO ../sv/env/serdes_env.sv(61) @ 0: uvm_test_top.env [serdes_env] agt[1].agt_cfg.is_parallel = 1 | agt[1].agt_cfg.is_active = 0
# UVM_INFO ../sv/env/serdes_env.sv(61) @ 0: uvm_test_top.env [serdes_env] agt[2].agt_cfg.is_parallel = 0 | agt[2].agt_cfg.is_active = 1
# UVM_INFO ../sv/env/serdes_env.sv(61) @ 0: uvm_test_top.env [serdes_env] agt[3].agt_cfg.is_parallel = 0 | agt[3].agt_cfg.is_active = 0
# UVM_INFO ../sv/env/serdes_driver.sv(27) @ 0: uvm_test_top.env.agt[0].drv [Driver Build Phase] Inside the build phase of driver class
# UVM_INFO ../sv/env/serdes_driver.sv(35) @ 0: uvm_test_top.env.agt[0].drv [serdes_driver] BUILD parallel_driver = 1
# UVM_INFO ../sv/env/../seq_lib/serdes_sequencer.sv(19) @ 0: uvm_test_top.env.agt[0].seqr [Sequencer Build Phase] Inside the build phase of sequencer class
# UVM_INFO ../sv/env/serdes_driver.sv(27) @ 0: uvm_test_top.env.agt[2].drv [Driver Build Phase] Inside the build phase of driver class
# UVM_INFO ../sv/env/serdes_driver.sv(35) @ 0: uvm_test_top.env.agt[2].drv [serdes_driver] BUILD parallel_driver = 0
# UVM_INFO ../sv/env/../seq_lib/serdes_sequencer.sv(19) @ 0: uvm_test_top.env.agt[2].seqr [Sequencer Build Phase] Inside the build phase of sequencer class
# UVM_INFO ../sv/env/serdes_driver.sv(42) @ 0: uvm_test_top.env.agt[0].drv [Driver Connect Phase] Inside the Connect Phase of driver class
# UVM_INFO ../sv/env/serdes_driver.sv(42) @ 0: uvm_test_top.env.agt[2].drv [Driver Connect Phase] Inside the Connect Phase of driver class
# UVM_INFO ../sv/env/serdes_driver.sv(49) @ 0: uvm_test_top.env.agt[0].drv [Driver EOE Phase] Inside the EOE Phase of driver class
# UVM_INFO ../sv/env/serdes_driver.sv(49) @ 0: uvm_test_top.env.agt[2].drv [Driver EOE Phase] Inside the EOE Phase of driver class
# UVM_INFO ../sv/env/../test/serdes_test.sv(57) @ 0: uvm_test_top [Driver EOE Phase] Inside the EOE Phase of driver class
# UVM_INFO verilog_src/uvm-1.2/src/base/uvm_root.svh(579) @ 0: reporter [UVMTOP] UVM testbench topology:
# ---------------------------------------------------------------------
# Name                           Type                       Size  Value
# ---------------------------------------------------------------------
# uvm_test_top                   serdes_test                -     @376 
#   env                          serdes_env                 -     @401 
#     agt[0]                     serdes_agent               -     @430 
#       drv                      serdes_driver              -     @487 
#         rsp_port               uvm_analysis_port          -     @504 
#         seq_item_port          uvm_seq_item_pull_port     -     @495 
#       mon                      serdes_monitor             -     @636 
#         packet_collected_port  uvm_analysis_port          -     @644 
#       seqr                     serdes_sequencer           -     @513 
#         rsp_export             uvm_analysis_export        -     @521 
#         seq_item_export        uvm_seq_item_pull_imp      -     @627 
#         arbitration_queue      array                      0     -    
#         lock_queue             array                      0     -    
#         num_last_reqs          integral                   32    'd1  
#         num_last_rsps          integral                   32    'd1  
#     agt[1]                     serdes_agent               -     @440 
#       mon                      serdes_monitor             -     @667 
#         packet_collected_port  uvm_analysis_port          -     @675 
#     agt[2]                     serdes_agent               -     @450 
#       drv                      serdes_driver              -     @686 
#         rsp_port               uvm_analysis_port          -     @703 
#         seq_item_port          uvm_seq_item_pull_port     -     @694 
#       mon                      serdes_monitor             -     @835 
#         packet_collected_port  uvm_analysis_port          -     @843 
#       seqr                     serdes_sequencer           -     @712 
#         rsp_export             uvm_analysis_export        -     @720 
#         seq_item_export        uvm_seq_item_pull_imp      -     @826 
#         arbitration_queue      array                      0     -    
#         lock_queue             array                      0     -    
#         num_last_reqs          integral                   32    'd1  
#         num_last_rsps          integral                   32    'd1  
#     agt[3]                     serdes_agent               -     @460 
#       mon                      serdes_monitor             -     @866 
#         packet_collected_port  uvm_analysis_port          -     @874 
#     scb[0]                     serdes_scoreboard          -     @470 
#       actual_imp               uvm_analysis_imp_actual    -     @893 
#       expected_imp             uvm_analysis_imp_expected  -     @884 
#     scb[1]                     serdes_scoreboard          -     @478 
#       actual_imp               uvm_analysis_imp_actual    -     @911 
#       expected_imp             uvm_analysis_imp_expected  -     @902 
# ---------------------------------------------------------------------
# 
# UVM_INFO ../sv/env/../test/serdes_test.sv(70) @ 0: uvm_test_top [serdes_test] seq[0].is_parallel = 1 | env.agt[0].agt_cfg.is_parallel = 1
# UVM_INFO ../sv/env/../test/serdes_test.sv(70) @ 0: uvm_test_top [serdes_test] seq[1].is_parallel = 0 | env.agt[1].agt_cfg.is_parallel = 0
# UVM_INFO ../sv/env/../seq_lib/serdes_sequence.sv(34) @ 0: uvm_test_top.env.agt[0].seqr@@seq[0] [PRE-BODY] INSIDE PRE-BODY TASK
# UVM_INFO ../sv/env/../seq_lib/serdes_sequence.sv(35) @ 0: uvm_test_top.env.agt[0].seqr@@seq[0] [PRE_BODY] serial_transaction_count=5, parallel_transaction_count = 5, is_parallel=1
# UVM_INFO ../sv/env/../seq_lib/serdes_sequence.sv(34) @ 0: uvm_test_top.env.agt[2].seqr@@seq[1] [PRE-BODY] INSIDE PRE-BODY TASK
# UVM_INFO ../sv/env/../seq_lib/serdes_sequence.sv(35) @ 0: uvm_test_top.env.agt[2].seqr@@seq[1] [PRE_BODY] serial_transaction_count=5, parallel_transaction_count = 5, is_parallel=0
# UVM_INFO ../sv/env/../../sve/serdes_dut.sv(42) @ 1000: reporter [DUT SIPO] Serial clock [1000] Rx0_p = 0 | Rx0_p Decimal = 0 |shift_reg = 0000000000 | shift_reg in decimal = 0 | sipo_main_count = 2
# UVM_INFO ../sv/env/serdes_monitor.sv(158) @ 1000: uvm_test_top.env.agt[0].mon [serdes_monitor] TIME PARALLEL ACTIVE = 1000
# UVM_INFO ../sv/env/../seq_lib/serdes_sequence.sv(69) @ 1000: uvm_test_top.env.agt[2].seqr@@seq[1] [BODY] Serial transaction: Rx0_p=1, Rx0_n=0
# UVM_INFO ../sv/env/../seq_lib/serdes_sequence.sv(48) @ 1000: uvm_test_top.env.agt[0].seqr@@seq[0] [BODY] Parallel transaction: Tx0 in Binary=0100111000 | Tx0 in Decimal = 312
# UVM_INFO ../sv/env/serdes_driver.sv(66) @ 1000: uvm_test_top.env.agt[2].drv [serdes_driver] after get next item req.Tx0 = 0011000110 | req.Rx0_p = 1 | req.Rx0_n = 0
# UVM_INFO ../sv/env/serdes_driver.sv(66) @ 1000: uvm_test_top.env.agt[0].drv [serdes_driver] after get next item req.Tx0 = 0100111000 | req.Rx0_p = 1 | req.Rx0_n = 0
# UVM_INFO ../sv/env/../../sve/serdes_dut.sv(42) @ 2000: reporter [DUT SIPO] Serial clock [2000] Rx0_p = 0 | Rx0_p Decimal = 0 |shift_reg = 0000000000 | shift_reg in decimal = 0 | sipo_main_count = 3
# UVM_INFO ../sv/env/../../sve/serdes_dut.sv(113) @ 2000: reporter [DUT PISO] Serial Clock [2000] Tx0 = 0000000000 | Tx0 Decimal = 0 |Tx0_p = 0 | Tx0_n = 1
# main_Count = 2
# I = 1
# UVM_INFO ../sv/env/serdes_driver.sv(104) @ 2000: uvm_test_top.env.agt[2].drv [serdes_driver] After serial drive DRIV_IF.Rx0_p = 1 | DRIV_IF.Rx0_n = 0
# UVM_INFO ../sv/env/serdes_monitor.sv(189) @ 2000: uvm_test_top.env.agt[3].mon [serdes_monitor] TIME SERIAL = 2000
# UVM_INFO ../sv/env/../seq_lib/serdes_sequence.sv(69) @ 2000: uvm_test_top.env.agt[2].seqr@@seq[1] [BODY] Serial transaction: Rx0_p=0, Rx0_n=1
# UVM_INFO ../sv/env/serdes_driver.sv(66) @ 2000: uvm_test_top.env.agt[2].drv [serdes_driver] after get next item req.Tx0 = 0001011100 | req.Rx0_p = 0 | req.Rx0_n = 1
# UVM_INFO ../sv/env/../../sve/serdes_dut.sv(42) @ 3000: reporter [DUT SIPO] Serial clock [3000] Rx0_p = 1 | Rx0_p Decimal = 1 |shift_reg = 0000000000 | shift_reg in decimal = 0 | sipo_main_count = 4
# UVM_INFO ../sv/env/../../sve/serdes_dut.sv(113) @ 3000: reporter [DUT PISO] Serial Clock [3000] Tx0 = 0000000000 | Tx0 Decimal = 0 |Tx0_p = 0 | Tx0_n = 1
# main_Count = 3
# I = 2
# UVM_INFO ../sv/env/serdes_driver.sv(104) @ 3000: uvm_test_top.env.agt[2].drv [serdes_driver] After serial drive DRIV_IF.Rx0_p = 0 | DRIV_IF.Rx0_n = 1
# UVM_INFO ../sv/env/serdes_monitor.sv(182) @ 3000: uvm_test_top.env.agt[2].mon [serdes_monitor] TIME SERIAL ACTIVE = 3000
# UVM_INFO ../sv/env/serdes_monitor.sv(73) @ 3000: uvm_test_top.env.agt[3].mon [serdes_monitor] PASSIVE SERIAL MONITOR serial data | mon_pkt.Tx0_p = 0 | mon_pkt.Tx0_n = 1 | count2 = 0
# UVM_INFO ../sv/env/../seq_lib/serdes_sequence.sv(69) @ 3000: uvm_test_top.env.agt[2].seqr@@seq[1] [BODY] Serial transaction: Rx0_p=1, Rx0_n=0
# UVM_INFO ../sv/env/serdes_driver.sv(66) @ 3000: uvm_test_top.env.agt[2].drv [serdes_driver] after get next item req.Tx0 = 1000001000 | req.Rx0_p = 1 | req.Rx0_n = 0
# UVM_INFO ../sv/env/../../sve/serdes_dut.sv(42) @ 4000: reporter [DUT SIPO] Serial clock [4000] Rx0_p = 0 | Rx0_p Decimal = 0 |shift_reg = 0000000001 | shift_reg in decimal = 1 | sipo_main_count = 5
# UVM_INFO ../sv/env/../../sve/serdes_dut.sv(113) @ 4000: reporter [DUT PISO] Serial Clock [4000] Tx0 = 0000000000 | Tx0 Decimal = 0 |Tx0_p = 0 | Tx0_n = 1
# main_Count = 4
# I = 3
# UVM_INFO ../sv/env/serdes_driver.sv(104) @ 4000: uvm_test_top.env.agt[2].drv [serdes_driver] After serial drive DRIV_IF.Rx0_p = 1 | DRIV_IF.Rx0_n = 0
# UVM_INFO ../sv/env/serdes_monitor.sv(73) @ 4000: uvm_test_top.env.agt[3].mon [serdes_monitor] PASSIVE SERIAL MONITOR serial data | mon_pkt.Tx0_p = 0 | mon_pkt.Tx0_n = 1 | count2 = 1
# UVM_INFO ../sv/env/serdes_monitor.sv(60) @ 4000: uvm_test_top.env.agt[2].mon [serdes_monitor] ACTIVE SERIAL MONITOR serial data | mon_pkt.Rx0_p = 1 | mon_pkt.Rx0_n = 0
# UVM_INFO ../sv/env/../seq_lib/serdes_sequence.sv(69) @ 4000: uvm_test_top.env.agt[2].seqr@@seq[1] [BODY] Serial transaction: Rx0_p=1, Rx0_n=0
# UVM_INFO ../sv/env/serdes_driver.sv(66) @ 4000: uvm_test_top.env.agt[2].drv [serdes_driver] after get next item req.Tx0 = 1011001110 | req.Rx0_p = 1 | req.Rx0_n = 0
# UVM_INFO ../sv/env/../../sve/serdes_dut.sv(42) @ 5000: reporter [DUT SIPO] Serial clock [5000] Rx0_p = 1 | Rx0_p Decimal = 1 |shift_reg = 0000000010 | shift_reg in decimal = 2 | sipo_main_count = 6
# UVM_INFO ../sv/env/../../sve/serdes_dut.sv(113) @ 5000: reporter [DUT PISO] Serial Clock [5000] Tx0 = 0000000000 | Tx0 Decimal = 0 |Tx0_p = 0 | Tx0_n = 1
# main_Count = 5
# I = 4
# UVM_INFO ../sv/env/serdes_driver.sv(104) @ 5000: uvm_test_top.env.agt[2].drv [serdes_driver] After serial drive DRIV_IF.Rx0_p = 1 | DRIV_IF.Rx0_n = 0
# UVM_INFO ../sv/env/serdes_monitor.sv(60) @ 5000: uvm_test_top.env.agt[2].mon [serdes_monitor] ACTIVE SERIAL MONITOR serial data | mon_pkt.Rx0_p = 0 | mon_pkt.Rx0_n = 1
# UVM_INFO ../sv/env/serdes_monitor.sv(73) @ 5000: uvm_test_top.env.agt[3].mon [serdes_monitor] PASSIVE SERIAL MONITOR serial data | mon_pkt.Tx0_p = 0 | mon_pkt.Tx0_n = 1 | count2 = 2
# UVM_INFO ../sv/env/../seq_lib/serdes_sequence.sv(69) @ 5000: uvm_test_top.env.agt[2].seqr@@seq[1] [BODY] Serial transaction: Rx0_p=1, Rx0_n=0
# UVM_INFO ../sv/env/serdes_driver.sv(66) @ 5000: uvm_test_top.env.agt[2].drv [serdes_driver] after get next item req.Tx0 = 1100010011 | req.Rx0_p = 1 | req.Rx0_n = 0
# UVM_INFO ../sv/env/../../sve/serdes_dut.sv(42) @ 6000: reporter [DUT SIPO] Serial clock [6000] Rx0_p = 1 | Rx0_p Decimal = 1 |shift_reg = 0000000101 | shift_reg in decimal = 5 | sipo_main_count = 7
# UVM_INFO ../sv/env/../../sve/serdes_dut.sv(113) @ 6000: reporter [DUT PISO] Serial Clock [6000] Tx0 = 0000000000 | Tx0 Decimal = 0 |Tx0_p = 0 | Tx0_n = 1
# main_Count = 6
# I = 5
# UVM_INFO ../sv/env/serdes_driver.sv(104) @ 6000: uvm_test_top.env.agt[2].drv [serdes_driver] After serial drive DRIV_IF.Rx0_p = 1 | DRIV_IF.Rx0_n = 0
# UVM_INFO ../sv/env/serdes_monitor.sv(73) @ 6000: uvm_test_top.env.agt[3].mon [serdes_monitor] PASSIVE SERIAL MONITOR serial data | mon_pkt.Tx0_p = 0 | mon_pkt.Tx0_n = 1 | count2 = 3
# UVM_INFO ../sv/env/serdes_monitor.sv(60) @ 6000: uvm_test_top.env.agt[2].mon [serdes_monitor] ACTIVE SERIAL MONITOR serial data | mon_pkt.Rx0_p = 1 | mon_pkt.Rx0_n = 0
# UVM_INFO ../sv/env/../seq_lib/serdes_sequence.sv(69) @ 6000: uvm_test_top.env.agt[2].seqr@@seq[1] [BODY] Serial transaction: Rx0_p=1, Rx0_n=0
# UVM_INFO ../sv/env/serdes_driver.sv(66) @ 6000: uvm_test_top.env.agt[2].drv [serdes_driver] after get next item req.Tx0 = 1101101100 | req.Rx0_p = 1 | req.Rx0_n = 0
# UVM_INFO ../sv/env/../../sve/serdes_dut.sv(42) @ 7000: reporter [DUT SIPO] Serial clock [7000] Rx0_p = 1 | Rx0_p Decimal = 1 |shift_reg = 0000001011 | shift_reg in decimal = 11 | sipo_main_count = 8
# UVM_INFO ../sv/env/../../sve/serdes_dut.sv(113) @ 7000: reporter [DUT PISO] Serial Clock [7000] Tx0 = 0000000000 | Tx0 Decimal = 0 |Tx0_p = 0 | Tx0_n = 1
# main_Count = 7
# I = 6
# UVM_INFO ../sv/env/serdes_driver.sv(104) @ 7000: uvm_test_top.env.agt[2].drv [serdes_driver] After serial drive DRIV_IF.Rx0_p = 1 | DRIV_IF.Rx0_n = 0
# UVM_INFO ../sv/env/serdes_monitor.sv(60) @ 7000: uvm_test_top.env.agt[2].mon [serdes_monitor] ACTIVE SERIAL MONITOR serial data | mon_pkt.Rx0_p = 1 | mon_pkt.Rx0_n = 0
# UVM_INFO ../sv/env/serdes_monitor.sv(73) @ 7000: uvm_test_top.env.agt[3].mon [serdes_monitor] PASSIVE SERIAL MONITOR serial data | mon_pkt.Tx0_p = 0 | mon_pkt.Tx0_n = 1 | count2 = 4
# UVM_INFO ../sv/env/../seq_lib/serdes_sequence.sv(69) @ 7000: uvm_test_top.env.agt[2].seqr@@seq[1] [BODY] Serial transaction: Rx0_p=1, Rx0_n=0
# UVM_INFO ../sv/env/serdes_driver.sv(66) @ 7000: uvm_test_top.env.agt[2].drv [serdes_driver] after get next item req.Tx0 = 0001000110 | req.Rx0_p = 1 | req.Rx0_n = 0
# UVM_INFO ../sv/env/../../sve/serdes_dut.sv(42) @ 8000: reporter [DUT SIPO] Serial clock [8000] Rx0_p = 1 | Rx0_p Decimal = 1 |shift_reg = 0000010111 | shift_reg in decimal = 23 | sipo_main_count = 9
# UVM_INFO ../sv/env/../../sve/serdes_dut.sv(113) @ 8000: reporter [DUT PISO] Serial Clock [8000] Tx0 = 0000000000 | Tx0 Decimal = 0 |Tx0_p = 0 | Tx0_n = 1
# main_Count = 8
# I = 7
# UVM_INFO ../sv/env/serdes_driver.sv(104) @ 8000: uvm_test_top.env.agt[2].drv [serdes_driver] After serial drive DRIV_IF.Rx0_p = 1 | DRIV_IF.Rx0_n = 0
# UVM_INFO ../sv/env/serdes_monitor.sv(73) @ 8000: uvm_test_top.env.agt[3].mon [serdes_monitor] PASSIVE SERIAL MONITOR serial data | mon_pkt.Tx0_p = 0 | mon_pkt.Tx0_n = 1 | count2 = 5
# UVM_INFO ../sv/env/serdes_monitor.sv(60) @ 8000: uvm_test_top.env.agt[2].mon [serdes_monitor] ACTIVE SERIAL MONITOR serial data | mon_pkt.Rx0_p = 1 | mon_pkt.Rx0_n = 0
# UVM_INFO ../sv/env/../seq_lib/serdes_sequence.sv(69) @ 8000: uvm_test_top.env.agt[2].seqr@@seq[1] [BODY] Serial transaction: Rx0_p=1, Rx0_n=0
# UVM_INFO ../sv/env/serdes_driver.sv(66) @ 8000: uvm_test_top.env.agt[2].drv [serdes_driver] after get next item req.Tx0 = 0001011101 | req.Rx0_p = 1 | req.Rx0_n = 0
# UVM_INFO ../sv/env/../../sve/serdes_dut.sv(42) @ 9000: reporter [DUT SIPO] Serial clock [9000] Rx0_p = 1 | Rx0_p Decimal = 1 |shift_reg = 0000101111 | shift_reg in decimal = 47 | sipo_main_count = 10
# UVM_INFO ../sv/env/../../sve/serdes_dut.sv(113) @ 9000: reporter [DUT PISO] Serial Clock [9000] Tx0 = 0000000000 | Tx0 Decimal = 0 |Tx0_p = 0 | Tx0_n = 1
# main_Count = 9
# I = 8
# UVM_INFO ../sv/env/serdes_driver.sv(104) @ 9000: uvm_test_top.env.agt[2].drv [serdes_driver] After serial drive DRIV_IF.Rx0_p = 1 | DRIV_IF.Rx0_n = 0
# UVM_INFO ../sv/env/serdes_monitor.sv(60) @ 9000: uvm_test_top.env.agt[2].mon [serdes_monitor] ACTIVE SERIAL MONITOR serial data | mon_pkt.Rx0_p = 1 | mon_pkt.Rx0_n = 0
# UVM_INFO ../sv/env/serdes_monitor.sv(73) @ 9000: uvm_test_top.env.agt[3].mon [serdes_monitor] PASSIVE SERIAL MONITOR serial data | mon_pkt.Tx0_p = 0 | mon_pkt.Tx0_n = 1 | count2 = 6
# UVM_INFO ../sv/env/../seq_lib/serdes_sequence.sv(69) @ 9000: uvm_test_top.env.agt[2].seqr@@seq[1] [BODY] Serial transaction: Rx0_p=1, Rx0_n=0
# UVM_INFO ../sv/env/serdes_driver.sv(66) @ 9000: uvm_test_top.env.agt[2].drv [serdes_driver] after get next item req.Tx0 = 1011010010 | req.Rx0_p = 1 | req.Rx0_n = 0
# UVM_INFO ../sv/env/../../sve/serdes_dut.sv(42) @ 10000: reporter [DUT SIPO] Serial clock [10000] Rx0_p = 1 | Rx0_p Decimal = 1 |shift_reg = 0001011111 | shift_reg in decimal = 95 | sipo_main_count = 11
# UVM_INFO ../sv/env/../../sve/serdes_dut.sv(113) @ 10000: reporter [DUT PISO] Serial Clock [10000] Tx0 = 0000000000 | Tx0 Decimal = 0 |Tx0_p = 0 | Tx0_n = 1
# main_Count = 10
# I = 9
# UVM_INFO ../sv/env/serdes_driver.sv(104) @ 10000: uvm_test_top.env.agt[2].drv [serdes_driver] After serial drive DRIV_IF.Rx0_p = 1 | DRIV_IF.Rx0_n = 0
# UVM_INFO ../sv/env/serdes_monitor.sv(73) @ 10000: uvm_test_top.env.agt[3].mon [serdes_monitor] PASSIVE SERIAL MONITOR serial data | mon_pkt.Tx0_p = 0 | mon_pkt.Tx0_n = 1 | count2 = 7
# UVM_INFO ../sv/env/serdes_monitor.sv(60) @ 10000: uvm_test_top.env.agt[2].mon [serdes_monitor] ACTIVE SERIAL MONITOR serial data | mon_pkt.Rx0_p = 1 | mon_pkt.Rx0_n = 0
# UVM_INFO ../sv/env/../seq_lib/serdes_sequence.sv(69) @ 10000: uvm_test_top.env.agt[2].seqr@@seq[1] [BODY] Serial transaction: Rx0_p=0, Rx0_n=1
# UVM_INFO ../sv/env/serdes_driver.sv(66) @ 10000: uvm_test_top.env.agt[2].drv [serdes_driver] after get next item req.Tx0 = 1010101111 | req.Rx0_p = 0 | req.Rx0_n = 1
# UVM_INFO ../sv/env/../../sve/serdes_dut.sv(42) @ 11000: reporter [DUT SIPO] Serial clock [11000] Rx0_p = 1 | Rx0_p Decimal = 1 |shift_reg = 0010111111 | shift_reg in decimal = 191 | sipo_main_count = 12
# UVM_INFO ../sv/env/../../sve/serdes_dut.sv(113) @ 11000: reporter [DUT PISO] Serial Clock [11000] Tx0 = 0000000000 | Tx0 Decimal = 0 |Tx0_p = 0 | Tx0_n = 1
# main_Count = 11
# I = 10
# UVM_INFO ../sv/env/serdes_driver.sv(112) @ 11000: uvm_test_top.env.agt[0].drv [serdes_driver] After parallel drive DRIV_IF.Tx0 = 0100111000 | DRIV_IF.Tx0 = 312
# UVM_INFO ../sv/env/serdes_monitor.sv(169) @ 11000: uvm_test_top.env.agt[1].mon [serdes_monitor] TIME PARALLEL PASSIVE = 11000
# UVM_INFO ../sv/env/serdes_monitor.sv(37) @ 11000: uvm_test_top.env.agt[0].mon [serdes_monitor] ACTIVE_PARALLEL_MONITOR mon_pkt.Tx0 = 0000000000 | mon_pkt.Tx0 = 0
# UVM_INFO ../sv/env/serdes_monitor.sv(205) @ 11000: uvm_test_top.env.agt[0].mon [serdes_monitor] Sending transaction: Tx0=0000000000, Rx0=0000000000, mon_parallel_Tx0=0000000000, mon_parallel_Rx0=0000000000
# UVM_INFO ../sv/env/serdes_scoreboard.sv(54) @ 11000: uvm_test_top.env.scb[0] [serdes_scoreboard] SCOREBOARD Received expected transaction: Tx0=0000000000, mon_parallel_Tx0=0000000000
# UVM_INFO ../sv/env/serdes_scoreboard.sv(57) @ 11000: uvm_test_top.env.scb[0] [serdes_scoreboard] Received expected transaction: Tx0=0000000000, mon_parallel_Tx0=0000000000
# UVM_INFO ../sv/env/serdes_driver.sv(104) @ 11000: uvm_test_top.env.agt[2].drv [serdes_driver] After serial drive DRIV_IF.Rx0_p = 0 | DRIV_IF.Rx0_n = 1
# UVM_INFO ../sv/env/serdes_monitor.sv(60) @ 11000: uvm_test_top.env.agt[2].mon [serdes_monitor] ACTIVE SERIAL MONITOR serial data | mon_pkt.Rx0_p = 1 | mon_pkt.Rx0_n = 0
# UVM_INFO ../sv/env/serdes_monitor.sv(73) @ 11000: uvm_test_top.env.agt[3].mon [serdes_monitor] PASSIVE SERIAL MONITOR serial data | mon_pkt.Tx0_p = 0 | mon_pkt.Tx0_n = 1 | count2 = 8
# UVM_INFO ../sv/env/../seq_lib/serdes_sequence.sv(69) @ 11000: uvm_test_top.env.agt[2].seqr@@seq[1] [BODY] Serial transaction: Rx0_p=1, Rx0_n=0
# UVM_INFO ../sv/env/../seq_lib/serdes_sequence.sv(48) @ 11000: uvm_test_top.env.agt[0].seqr@@seq[0] [BODY] Parallel transaction: Tx0 in Binary=0100110100 | Tx0 in Decimal = 308
# UVM_INFO ../sv/env/serdes_driver.sv(66) @ 11000: uvm_test_top.env.agt[2].drv [serdes_driver] after get next item req.Tx0 = 1001101101 | req.Rx0_p = 1 | req.Rx0_n = 0
# UVM_INFO ../sv/env/serdes_driver.sv(66) @ 11000: uvm_test_top.env.agt[0].drv [serdes_driver] after get next item req.Tx0 = 0100110100 | req.Rx0_p = 1 | req.Rx0_n = 0
# UVM_INFO ../sv/env/../../sve/serdes_dut.sv(42) @ 12000: reporter [DUT SIPO] Serial clock [12000] Rx0_p = 0 | Rx0_p Decimal = 0 |shift_reg = 0101111111 | shift_reg in decimal = 383 | sipo_main_count = 13
# UVM_INFO ../sv/env/../../sve/serdes_dut.sv(113) @ 12000: reporter [DUT PISO] Serial Clock [12000] Tx0 = 0100111000 | Tx0 Decimal = 312 |Tx0_p = 0 | Tx0_n = 1
# main_Count = 2
# I = 1
