vip/sim/log/serdes_test_3_500/serdes_test_3_500.log
# vsim -c -assertdebug -msgmode both work.tb_opt "+UVM_TESTNAME=serdes_test" "+SPEED=3" "+SERIAL_TRANSACTION_COUNT=5" "+PARALLEL_TRANSACTION_COUNT=5" "+NO_OF_AGENTS=4" -sv_seed 500 -l ../sim/log/serdes_test_3_500/serdes_test_3_500.log -do "add wave -r /*; run -all" 
# Start time: 15:44:46 on Aug 04,2025
# Loading /tmp/vandan-parekh@vandan-parekh-Victus-Gaming-Laptop-15-fa0165TX_dpi_26485/linux_gcc-7.4.0/export_tramp.so
# //  Questa Sim
# //  Version 2021.2_1 linux May 15 2021
# //
# //  Copyright 1991-2021 Mentor Graphics Corporation
# //  All Rights Reserved.
# //
# //  QuestaSim and its associated documentation contain trade
# //  secrets and commercial or financial information that are the property of
# //  Mentor Graphics Corporation and are privileged, confidential,
# //  and exempt from disclosure under the Freedom of Information Act,
# //  5 U.S.C. Section 552. Furthermore, this information
# //  is prohibited from disclosure under the Trade Secrets Act,
# //  18 U.S.C. Section 1905.
# //
# Loading sv_std.std
# Loading work.serdes_interface(fast)
# Loading mtiUvm.uvm_pkg(fast)
# Loading work.serdes_pkg(fast)
# Loading work.serdes_pkg_sv_unit(fast)
# Loading mtiUvm.questa_uvm_pkg(fast)
# Loading work.tb_top(fast)
# Loading work.serdes_interface(fast__2)
# Loading work.sipo_shift_register(fast)
# Loading work.piso_shift_register(fast)
# ** Warning: (vsim-8441) Clocking block output vif.driver_cb.Rx0_p is not legal in this
# or another expression.
#    Time: 0 ps  Iteration: 0  Region: /serdes_pkg::serdes_driver File: ../sv/env/serdes_driver.sv Line: 102
# ** Warning: (vsim-8441) Clocking block output vif.driver_cb.Rx0_n is not legal in this
# or another expression.
#    Time: 0 ps  Iteration: 0  Region: /serdes_pkg::serdes_driver File: ../sv/env/serdes_driver.sv Line: 103
# ** Warning: (vsim-8441) Clocking block output vif.driver_cb.Rx0_p is not legal in this
# or another expression.
#    Time: 0 ps  Iteration: 0  Region: /serdes_pkg::serdes_driver File: ../sv/env/serdes_driver.sv Line: 102
# ** Warning: (vsim-8441) Clocking block output vif.driver_cb.Rx0_n is not legal in this
# or another expression.
#    Time: 0 ps  Iteration: 0  Region: /serdes_pkg::serdes_driver File: ../sv/env/serdes_driver.sv Line: 103
# ** Warning: (vsim-8441) Clocking block output vif.driver_cb.Tx0 is not legal in this
# or another expression.
#    Time: 0 ps  Iteration: 0  Region: /serdes_pkg::serdes_driver File: ../sv/env/serdes_driver.sv Line: 111
# ** Warning: (vsim-8441) Clocking block output vif.driver_cb.Tx0 is not legal in this
# or another expression.
#    Time: 0 ps  Iteration: 0  Region: /serdes_pkg::serdes_driver File: ../sv/env/serdes_driver.sv Line: 111
# ** Warning: (vsim-8441) Clocking block output vif.driver_cb.Tx0 is not legal in this
# or another expression.
#    Time: 0 ps  Iteration: 0  Region: /serdes_pkg::serdes_driver File: ../sv/env/serdes_driver.sv Line: 111
# Compiling /tmp/vandan-parekh@vandan-parekh-Victus-Gaming-Laptop-15-fa0165TX_dpi_26485/linux_gcc-7.4.0/exportwrapper.c
# Loading /tmp/vandan-parekh@vandan-parekh-Victus-Gaming-Laptop-15-fa0165TX_dpi_26485/linux_gcc-7.4.0/vsim_auto_compile.so
# Loading /home/vandan-parekh/Downloads/Mentor_Graphics_QuestaSim_2021.2.1/installation/questasim/uvm-1.2/linux/uvm_dpi.so
# add wave -r /*
#  run -all
# UVM_INFO verilog_src/uvm-1.2/src/base/uvm_root.svh(392) @ 0: reporter [UVM/RELNOTES] 
# ----------------------------------------------------------------
# UVM-1.2
# (C) 2007-2014 Mentor Graphics Corporation
# (C) 2007-2014 Cadence Design Systems, Inc.
# (C) 2006-2014 Synopsys, Inc.
# (C) 2011-2013 Cypress Semiconductor Corp.
# (C) 2013-2014 NVIDIA Corporation
# ----------------------------------------------------------------
# 
#   ***********       IMPORTANT RELEASE NOTES         ************
# 
#   You are using a version of the UVM library that has been compiled
#   with `UVM_NO_DEPRECATED undefined.
#   See http://www.eda.org/svdb/view.php?id=3313 for more details.
# 
#   You are using a version of the UVM library that has been compiled
#   with `UVM_OBJECT_DO_NOT_NEED_CONSTRUCTOR undefined.
#   See http://www.eda.org/svdb/view.php?id=3770 for more details.
# 
#       (Specify +UVM_NO_RELNOTES to turn off this notice)
# 
# UVM_INFO verilog_src/questa_uvm_pkg-1.2/src/questa_uvm_pkg.sv(277) @ 0: reporter [Questa UVM] QUESTA_UVM-1.2.3
# UVM_INFO verilog_src/questa_uvm_pkg-1.2/src/questa_uvm_pkg.sv(278) @ 0: reporter [Questa UVM]  questa_uvm::init(+struct)
# Serdes speed is = 3000000000.000000 Hz
# Transaction count is = 5
# Transaction count is = 5
# Number of agents is = 4
# UVM_INFO ../sv/env/../../tb_top/serdes_top_tb.sv(99) @ 0: reporter [COMMAND LINE] Serial CLK Period = 0.333333 ns
# UVM_INFO ../sv/env/../../tb_top/serdes_top_tb.sv(100) @ 0: reporter [COMMAND LINE] Parallel CLK Period = 3.333333 ns
# UVM_INFO @ 0: reporter [RNTST] Running test serdes_test...
# UVM_INFO ../sv/env/../../sve/serdes_dut.sv(22) @ 0: reporter [DUT SIPO RESET] RESET CONDITION DISPLAY Serial clock [0] Rx0_p = x | Rx0_p Decimal = x |shift_reg = xxxxxxxxxx | shift_reg in decimal = x
# UVM_INFO ../sv/env/../../sve/serdes_dut.sv(107) @ 0: reporter [DUT PISO RESET CONDITION] RESET CONDITION Serial Clock [0] Tx0 = xxxxxxxxxx | Tx0 Decimal = x |Tx0_p = x | Tx0_n = x
# UVM_INFO ../sv/env/serdes_agent_config.sv(33) @ 0: reporter [serdes_agent_config] current_agt_no = 0 and is_parallel = 1
# UVM_INFO ../sv/env/serdes_agent_config.sv(33) @ 0: reporter [serdes_agent_config] current_agt_no = 1 and is_parallel = 1
# UVM_INFO ../sv/env/serdes_env.sv(61) @ 0: uvm_test_top.env [serdes_env] agt[0].agt_cfg.is_parallel = 1 | agt[0].agt_cfg.is_active = 1
# UVM_INFO ../sv/env/serdes_env.sv(61) @ 0: uvm_test_top.env [serdes_env] agt[1].agt_cfg.is_parallel = 1 | agt[1].agt_cfg.is_active = 0
# UVM_INFO ../sv/env/serdes_env.sv(61) @ 0: uvm_test_top.env [serdes_env] agt[2].agt_cfg.is_parallel = 0 | agt[2].agt_cfg.is_active = 1
# UVM_INFO ../sv/env/serdes_env.sv(61) @ 0: uvm_test_top.env [serdes_env] agt[3].agt_cfg.is_parallel = 0 | agt[3].agt_cfg.is_active = 0
# UVM_INFO ../sv/env/serdes_driver.sv(27) @ 0: uvm_test_top.env.agt[0].drv [Driver Build Phase] Inside the build phase of driver class
# UVM_INFO ../sv/env/serdes_driver.sv(35) @ 0: uvm_test_top.env.agt[0].drv [serdes_driver] BUILD parallel_driver = 1
# UVM_INFO ../sv/env/../seq_lib/serdes_sequencer.sv(19) @ 0: uvm_test_top.env.agt[0].seqr [Sequencer Build Phase] Inside the build phase of sequencer class
# UVM_INFO ../sv/env/serdes_driver.sv(27) @ 0: uvm_test_top.env.agt[2].drv [Driver Build Phase] Inside the build phase of driver class
# UVM_INFO ../sv/env/serdes_driver.sv(35) @ 0: uvm_test_top.env.agt[2].drv [serdes_driver] BUILD parallel_driver = 0
# UVM_INFO ../sv/env/../seq_lib/serdes_sequencer.sv(19) @ 0: uvm_test_top.env.agt[2].seqr [Sequencer Build Phase] Inside the build phase of sequencer class
# UVM_INFO ../sv/env/serdes_driver.sv(42) @ 0: uvm_test_top.env.agt[0].drv [Driver Connect Phase] Inside the Connect Phase of driver class
# UVM_INFO ../sv/env/serdes_driver.sv(42) @ 0: uvm_test_top.env.agt[2].drv [Driver Connect Phase] Inside the Connect Phase of driver class
# UVM_INFO ../sv/env/serdes_driver.sv(49) @ 0: uvm_test_top.env.agt[0].drv [Driver EOE Phase] Inside the EOE Phase of driver class
# UVM_INFO ../sv/env/serdes_driver.sv(49) @ 0: uvm_test_top.env.agt[2].drv [Driver EOE Phase] Inside the EOE Phase of driver class
# UVM_INFO ../sv/env/../test/serdes_test.sv(57) @ 0: uvm_test_top [Driver EOE Phase] Inside the EOE Phase of driver class
# UVM_INFO verilog_src/uvm-1.2/src/base/uvm_root.svh(579) @ 0: reporter [UVMTOP] UVM testbench topology:
# ---------------------------------------------------------------------
# Name                           Type                       Size  Value
# ---------------------------------------------------------------------
# uvm_test_top                   serdes_test                -     @380 
#   env                          serdes_env                 -     @405 
#     agt[0]                     serdes_agent               -     @434 
#       drv                      serdes_driver              -     @491 
#         rsp_port               uvm_analysis_port          -     @508 
#         seq_item_port          uvm_seq_item_pull_port     -     @499 
#       mon                      serdes_monitor             -     @640 
#         packet_collected_port  uvm_analysis_port          -     @648 
#       seqr                     serdes_sequencer           -     @517 
#         rsp_export             uvm_analysis_export        -     @525 
#         seq_item_export        uvm_seq_item_pull_imp      -     @631 
#         arbitration_queue      array                      0     -    
#         lock_queue             array                      0     -    
#         num_last_reqs          integral                   32    'd1  
#         num_last_rsps          integral                   32    'd1  
#     agt[1]                     serdes_agent               -     @444 
#       mon                      serdes_monitor             -     @671 
#         packet_collected_port  uvm_analysis_port          -     @679 
#     agt[2]                     serdes_agent               -     @454 
#       drv                      serdes_driver              -     @690 
#         rsp_port               uvm_analysis_port          -     @707 
#         seq_item_port          uvm_seq_item_pull_port     -     @698 
#       mon                      serdes_monitor             -     @839 
#         packet_collected_port  uvm_analysis_port          -     @847 
#       seqr                     serdes_sequencer           -     @716 
#         rsp_export             uvm_analysis_export        -     @724 
#         seq_item_export        uvm_seq_item_pull_imp      -     @830 
#         arbitration_queue      array                      0     -    
#         lock_queue             array                      0     -    
#         num_last_reqs          integral                   32    'd1  
#         num_last_rsps          integral                   32    'd1  
#     agt[3]                     serdes_agent               -     @464 
#       mon                      serdes_monitor             -     @870 
#         packet_collected_port  uvm_analysis_port          -     @878 
#     scb[0]                     serdes_scoreboard          -     @474 
#       actual_imp               uvm_analysis_imp_actual    -     @897 
#       expected_imp             uvm_analysis_imp_expected  -     @888 
#     scb[1]                     serdes_scoreboard          -     @482 
#       actual_imp               uvm_analysis_imp_actual    -     @915 
#       expected_imp             uvm_analysis_imp_expected  -     @906 
# ---------------------------------------------------------------------
# 
# UVM_INFO ../sv/env/../test/serdes_test.sv(70) @ 0: uvm_test_top [serdes_test] seq[0].is_parallel = 1 | env.agt[0].agt_cfg.is_parallel = 1
# UVM_INFO ../sv/env/../test/serdes_test.sv(70) @ 0: uvm_test_top [serdes_test] seq[1].is_parallel = 0 | env.agt[1].agt_cfg.is_parallel = 0
# UVM_INFO ../sv/env/../seq_lib/serdes_sequence.sv(34) @ 0: uvm_test_top.env.agt[0].seqr@@seq[0] [PRE-BODY] INSIDE PRE-BODY TASK
# UVM_INFO ../sv/env/../seq_lib/serdes_sequence.sv(35) @ 0: uvm_test_top.env.agt[0].seqr@@seq[0] [PRE_BODY] serial_transaction_count=5, parallel_transaction_count = 5, is_parallel=1
# UVM_INFO ../sv/env/../seq_lib/serdes_sequence.sv(34) @ 0: uvm_test_top.env.agt[2].seqr@@seq[1] [PRE-BODY] INSIDE PRE-BODY TASK
# UVM_INFO ../sv/env/../seq_lib/serdes_sequence.sv(35) @ 0: uvm_test_top.env.agt[2].seqr@@seq[1] [PRE_BODY] serial_transaction_count=5, parallel_transaction_count = 5, is_parallel=0
# UVM_INFO ../sv/env/../../sve/serdes_dut.sv(42) @ 333: reporter [DUT SIPO] Serial clock [0] Rx0_p = 0 | Rx0_p Decimal = 0 |shift_reg = 0000000000 | shift_reg in decimal = 0 | sipo_main_count = 2
# UVM_INFO ../sv/env/serdes_monitor.sv(158) @ 333: uvm_test_top.env.agt[0].mon [serdes_monitor] TIME PARALLEL ACTIVE = 333
# UVM_INFO ../sv/env/../seq_lib/serdes_sequence.sv(69) @ 333: uvm_test_top.env.agt[2].seqr@@seq[1] [BODY] Serial transaction: Rx0_p=0, Rx0_n=1
# UVM_INFO ../sv/env/../seq_lib/serdes_sequence.sv(48) @ 333: uvm_test_top.env.agt[0].seqr@@seq[0] [BODY] Parallel transaction: Tx0 in Binary=1111101110 | Tx0 in Decimal = 1006
# UVM_INFO ../sv/env/serdes_driver.sv(66) @ 333: uvm_test_top.env.agt[2].drv [serdes_driver] after get next item req.Tx0 = 0111000111 | req.Rx0_p = 0 | req.Rx0_n = 1
# UVM_INFO ../sv/env/serdes_driver.sv(66) @ 333: uvm_test_top.env.agt[0].drv [serdes_driver] after get next item req.Tx0 = 1111101110 | req.Rx0_p = 1 | req.Rx0_n = 0
# UVM_INFO ../sv/env/../../tb_top/serdes_top_tb.sv(108) @ 500: reporter [Serial clock top] FROM TOP SERIAL TIME = 1000
# UVM_INFO ../sv/env/../../tb_top/serdes_top_tb.sv(108) @ 667: reporter [Serial clock top] FROM TOP SERIAL TIME = 1000
# UVM_INFO ../sv/env/../../sve/serdes_dut.sv(42) @ 667: reporter [DUT SIPO] Serial clock [1000] Rx0_p = 0 | Rx0_p Decimal = 0 |shift_reg = 0000000000 | shift_reg in decimal = 0 | sipo_main_count = 3
# UVM_INFO ../sv/env/../../sve/serdes_dut.sv(113) @ 667: reporter [DUT PISO] Serial Clock [1000] Tx0 = 0000000000 | Tx0 Decimal = 0 |Tx0_p = 0 | Tx0_n = 1
# main_Count = 2
# I = 1
# UVM_INFO ../sv/env/serdes_driver.sv(104) @ 667: uvm_test_top.env.agt[2].drv [serdes_driver] After serial drive DRIV_IF.Rx0_p = 0 | DRIV_IF.Rx0_n = 1
# UVM_INFO ../sv/env/serdes_monitor.sv(189) @ 667: uvm_test_top.env.agt[3].mon [serdes_monitor] TIME SERIAL = 667
# UVM_INFO ../sv/env/../seq_lib/serdes_sequence.sv(69) @ 667: uvm_test_top.env.agt[2].seqr@@seq[1] [BODY] Serial transaction: Rx0_p=0, Rx0_n=1
# UVM_INFO ../sv/env/serdes_driver.sv(66) @ 667: uvm_test_top.env.agt[2].drv [serdes_driver] after get next item req.Tx0 = 1000001000 | req.Rx0_p = 0 | req.Rx0_n = 1
# UVM_INFO ../sv/env/../../tb_top/serdes_top_tb.sv(108) @ 834: reporter [Serial clock top] FROM TOP SERIAL TIME = 1000
# UVM_INFO ../sv/env/../../tb_top/serdes_top_tb.sv(108) @ 1001: reporter [Serial clock top] FROM TOP SERIAL TIME = 1000
# UVM_INFO ../sv/env/../../sve/serdes_dut.sv(42) @ 1001: reporter [DUT SIPO] Serial clock [1000] Rx0_p = 0 | Rx0_p Decimal = 0 |shift_reg = 0000000000 | shift_reg in decimal = 0 | sipo_main_count = 4
# UVM_INFO ../sv/env/../../sve/serdes_dut.sv(113) @ 1001: reporter [DUT PISO] Serial Clock [1000] Tx0 = 0000000000 | Tx0 Decimal = 0 |Tx0_p = 0 | Tx0_n = 1
# main_Count = 3
# I = 2
# UVM_INFO ../sv/env/serdes_driver.sv(104) @ 1001: uvm_test_top.env.agt[2].drv [serdes_driver] After serial drive DRIV_IF.Rx0_p = 0 | DRIV_IF.Rx0_n = 1
# UVM_INFO ../sv/env/serdes_monitor.sv(182) @ 1001: uvm_test_top.env.agt[2].mon [serdes_monitor] TIME SERIAL ACTIVE = 1001
# UVM_INFO ../sv/env/serdes_monitor.sv(73) @ 1001: uvm_test_top.env.agt[3].mon [serdes_monitor] PASSIVE SERIAL MONITOR serial data | mon_pkt.Tx0_p = 0 | mon_pkt.Tx0_n = 1 | count2 = 0
# UVM_INFO ../sv/env/../seq_lib/serdes_sequence.sv(69) @ 1001: uvm_test_top.env.agt[2].seqr@@seq[1] [BODY] Serial transaction: Rx0_p=1, Rx0_n=0
# UVM_INFO ../sv/env/serdes_driver.sv(66) @ 1001: uvm_test_top.env.agt[2].drv [serdes_driver] after get next item req.Tx0 = 0111101001 | req.Rx0_p = 1 | req.Rx0_n = 0
# UVM_INFO ../sv/env/../../tb_top/serdes_top_tb.sv(108) @ 1168: reporter [Serial clock top] FROM TOP SERIAL TIME = 1000
# UVM_INFO ../sv/env/../../tb_top/serdes_top_tb.sv(108) @ 1335: reporter [Serial clock top] FROM TOP SERIAL TIME = 1000
# UVM_INFO ../sv/env/../../sve/serdes_dut.sv(42) @ 1335: reporter [DUT SIPO] Serial clock [1000] Rx0_p = 0 | Rx0_p Decimal = 0 |shift_reg = 0000000000 | shift_reg in decimal = 0 | sipo_main_count = 5
# UVM_INFO ../sv/env/../../sve/serdes_dut.sv(113) @ 1335: reporter [DUT PISO] Serial Clock [1000] Tx0 = 0000000000 | Tx0 Decimal = 0 |Tx0_p = 0 | Tx0_n = 1
# main_Count = 4
# I = 3
# UVM_INFO ../sv/env/serdes_driver.sv(104) @ 1335: uvm_test_top.env.agt[2].drv [serdes_driver] After serial drive DRIV_IF.Rx0_p = 1 | DRIV_IF.Rx0_n = 0
# UVM_INFO ../sv/env/serdes_monitor.sv(73) @ 1335: uvm_test_top.env.agt[3].mon [serdes_monitor] PASSIVE SERIAL MONITOR serial data | mon_pkt.Tx0_p = 0 | mon_pkt.Tx0_n = 1 | count2 = 1
# UVM_INFO ../sv/env/serdes_monitor.sv(60) @ 1335: uvm_test_top.env.agt[2].mon [serdes_monitor] ACTIVE SERIAL MONITOR serial data | mon_pkt.Rx0_p = 0 | mon_pkt.Rx0_n = 1
# UVM_INFO ../sv/env/../seq_lib/serdes_sequence.sv(69) @ 1335: uvm_test_top.env.agt[2].seqr@@seq[1] [BODY] Serial transaction: Rx0_p=1, Rx0_n=0
# UVM_INFO ../sv/env/serdes_driver.sv(66) @ 1335: uvm_test_top.env.agt[2].drv [serdes_driver] after get next item req.Tx0 = 0101000010 | req.Rx0_p = 1 | req.Rx0_n = 0
# UVM_INFO ../sv/env/../../tb_top/serdes_top_tb.sv(108) @ 1502: reporter [Serial clock top] FROM TOP SERIAL TIME = 2000
# UVM_INFO ../sv/env/../../tb_top/serdes_top_tb.sv(108) @ 1669: reporter [Serial clock top] FROM TOP SERIAL TIME = 2000
# UVM_INFO ../sv/env/../../sve/serdes_dut.sv(42) @ 1669: reporter [DUT SIPO] Serial clock [2000] Rx0_p = 1 | Rx0_p Decimal = 1 |shift_reg = 0000000000 | shift_reg in decimal = 0 | sipo_main_count = 6
# UVM_INFO ../sv/env/../../sve/serdes_dut.sv(113) @ 1669: reporter [DUT PISO] Serial Clock [2000] Tx0 = 0000000000 | Tx0 Decimal = 0 |Tx0_p = 0 | Tx0_n = 1
# main_Count = 5
# I = 4
# UVM_INFO ../sv/env/serdes_driver.sv(104) @ 1669: uvm_test_top.env.agt[2].drv [serdes_driver] After serial drive DRIV_IF.Rx0_p = 1 | DRIV_IF.Rx0_n = 0
# UVM_INFO ../sv/env/serdes_monitor.sv(60) @ 1669: uvm_test_top.env.agt[2].mon [serdes_monitor] ACTIVE SERIAL MONITOR serial data | mon_pkt.Rx0_p = 0 | mon_pkt.Rx0_n = 1
# UVM_INFO ../sv/env/serdes_monitor.sv(73) @ 1669: uvm_test_top.env.agt[3].mon [serdes_monitor] PASSIVE SERIAL MONITOR serial data | mon_pkt.Tx0_p = 0 | mon_pkt.Tx0_n = 1 | count2 = 2
# UVM_INFO ../sv/env/../seq_lib/serdes_sequence.sv(69) @ 1669: uvm_test_top.env.agt[2].seqr@@seq[1] [BODY] Serial transaction: Rx0_p=1, Rx0_n=0
# UVM_INFO ../sv/env/serdes_driver.sv(66) @ 1669: uvm_test_top.env.agt[2].drv [serdes_driver] after get next item req.Tx0 = 1011000000 | req.Rx0_p = 1 | req.Rx0_n = 0
# UVM_INFO ../sv/env/../../tb_top/serdes_top_tb.sv(108) @ 1836: reporter [Serial clock top] FROM TOP SERIAL TIME = 2000
# UVM_INFO ../sv/env/../../tb_top/serdes_top_tb.sv(124) @ 2000: reporter [Serial clock top] FROM TOP SERIAL TIME = 2000
# UVM_INFO ../sv/env/../../tb_top/serdes_top_tb.sv(108) @ 2003: reporter [Serial clock top] FROM TOP SERIAL TIME = 2000
# UVM_INFO ../sv/env/../../sve/serdes_dut.sv(42) @ 2003: reporter [DUT SIPO] Serial clock [2000] Rx0_p = 1 | Rx0_p Decimal = 1 |shift_reg = 0000000001 | shift_reg in decimal = 1 | sipo_main_count = 7
# UVM_INFO ../sv/env/../../sve/serdes_dut.sv(113) @ 2003: reporter [DUT PISO] Serial Clock [2000] Tx0 = 0000000000 | Tx0 Decimal = 0 |Tx0_p = 0 | Tx0_n = 1
# main_Count = 6
# I = 5
# UVM_INFO ../sv/env/serdes_driver.sv(104) @ 2003: uvm_test_top.env.agt[2].drv [serdes_driver] After serial drive DRIV_IF.Rx0_p = 1 | DRIV_IF.Rx0_n = 0
# UVM_INFO ../sv/env/serdes_monitor.sv(73) @ 2003: uvm_test_top.env.agt[3].mon [serdes_monitor] PASSIVE SERIAL MONITOR serial data | mon_pkt.Tx0_p = 0 | mon_pkt.Tx0_n = 1 | count2 = 3
# UVM_INFO ../sv/env/serdes_monitor.sv(60) @ 2003: uvm_test_top.env.agt[2].mon [serdes_monitor] ACTIVE SERIAL MONITOR serial data | mon_pkt.Rx0_p = 1 | mon_pkt.Rx0_n = 0
# UVM_INFO ../sv/env/../seq_lib/serdes_sequence.sv(69) @ 2003: uvm_test_top.env.agt[2].seqr@@seq[1] [BODY] Serial transaction: Rx0_p=0, Rx0_n=1
# UVM_INFO ../sv/env/serdes_driver.sv(66) @ 2003: uvm_test_top.env.agt[2].drv [serdes_driver] after get next item req.Tx0 = 1100100110 | req.Rx0_p = 0 | req.Rx0_n = 1
# UVM_INFO ../sv/env/../../tb_top/serdes_top_tb.sv(108) @ 2170: reporter [Serial clock top] FROM TOP SERIAL TIME = 2000
# UVM_INFO ../sv/env/../../tb_top/serdes_top_tb.sv(108) @ 2337: reporter [Serial clock top] FROM TOP SERIAL TIME = 2000
# UVM_INFO ../sv/env/../../sve/serdes_dut.sv(42) @ 2337: reporter [DUT SIPO] Serial clock [2000] Rx0_p = 1 | Rx0_p Decimal = 1 |shift_reg = 0000000011 | shift_reg in decimal = 3 | sipo_main_count = 8
# UVM_INFO ../sv/env/../../sve/serdes_dut.sv(113) @ 2337: reporter [DUT PISO] Serial Clock [2000] Tx0 = 0000000000 | Tx0 Decimal = 0 |Tx0_p = 0 | Tx0_n = 1
# main_Count = 7
# I = 6
# UVM_INFO ../sv/env/serdes_driver.sv(104) @ 2337: uvm_test_top.env.agt[2].drv [serdes_driver] After serial drive DRIV_IF.Rx0_p = 0 | DRIV_IF.Rx0_n = 1
# UVM_INFO ../sv/env/serdes_monitor.sv(60) @ 2337: uvm_test_top.env.agt[2].mon [serdes_monitor] ACTIVE SERIAL MONITOR serial data | mon_pkt.Rx0_p = 1 | mon_pkt.Rx0_n = 0
# UVM_INFO ../sv/env/serdes_monitor.sv(73) @ 2337: uvm_test_top.env.agt[3].mon [serdes_monitor] PASSIVE SERIAL MONITOR serial data | mon_pkt.Tx0_p = 0 | mon_pkt.Tx0_n = 1 | count2 = 4
# UVM_INFO ../sv/env/../seq_lib/serdes_sequence.sv(69) @ 2337: uvm_test_top.env.agt[2].seqr@@seq[1] [BODY] Serial transaction: Rx0_p=0, Rx0_n=1
# UVM_INFO ../sv/env/serdes_driver.sv(66) @ 2337: uvm_test_top.env.agt[2].drv [serdes_driver] after get next item req.Tx0 = 0001010100 | req.Rx0_p = 0 | req.Rx0_n = 1
# UVM_INFO ../sv/env/../../tb_top/serdes_top_tb.sv(108) @ 2504: reporter [Serial clock top] FROM TOP SERIAL TIME = 3000
# UVM_INFO ../sv/env/../../tb_top/serdes_top_tb.sv(108) @ 2671: reporter [Serial clock top] FROM TOP SERIAL TIME = 3000
# UVM_INFO ../sv/env/../../sve/serdes_dut.sv(42) @ 2671: reporter [DUT SIPO] Serial clock [3000] Rx0_p = 0 | Rx0_p Decimal = 0 |shift_reg = 0000000111 | shift_reg in decimal = 7 | sipo_main_count = 9
# UVM_INFO ../sv/env/../../sve/serdes_dut.sv(113) @ 2671: reporter [DUT PISO] Serial Clock [3000] Tx0 = 0000000000 | Tx0 Decimal = 0 |Tx0_p = 0 | Tx0_n = 1
# main_Count = 8
# I = 7
# UVM_INFO ../sv/env/serdes_driver.sv(104) @ 2671: uvm_test_top.env.agt[2].drv [serdes_driver] After serial drive DRIV_IF.Rx0_p = 0 | DRIV_IF.Rx0_n = 1
# UVM_INFO ../sv/env/serdes_monitor.sv(73) @ 2671: uvm_test_top.env.agt[3].mon [serdes_monitor] PASSIVE SERIAL MONITOR serial data | mon_pkt.Tx0_p = 0 | mon_pkt.Tx0_n = 1 | count2 = 5
# UVM_INFO ../sv/env/serdes_monitor.sv(60) @ 2671: uvm_test_top.env.agt[2].mon [serdes_monitor] ACTIVE SERIAL MONITOR serial data | mon_pkt.Rx0_p = 1 | mon_pkt.Rx0_n = 0
# UVM_INFO ../sv/env/../seq_lib/serdes_sequence.sv(69) @ 2671: uvm_test_top.env.agt[2].seqr@@seq[1] [BODY] Serial transaction: Rx0_p=1, Rx0_n=0
# UVM_INFO ../sv/env/serdes_driver.sv(66) @ 2671: uvm_test_top.env.agt[2].drv [serdes_driver] after get next item req.Tx0 = 0101100011 | req.Rx0_p = 1 | req.Rx0_n = 0
# UVM_INFO ../sv/env/../../tb_top/serdes_top_tb.sv(108) @ 2838: reporter [Serial clock top] FROM TOP SERIAL TIME = 3000
# UVM_INFO ../sv/env/../../tb_top/serdes_top_tb.sv(108) @ 3005: reporter [Serial clock top] FROM TOP SERIAL TIME = 3000
# UVM_INFO ../sv/env/../../sve/serdes_dut.sv(42) @ 3005: reporter [DUT SIPO] Serial clock [3000] Rx0_p = 0 | Rx0_p Decimal = 0 |shift_reg = 0000001110 | shift_reg in decimal = 14 | sipo_main_count = 10
# UVM_INFO ../sv/env/../../sve/serdes_dut.sv(113) @ 3005: reporter [DUT PISO] Serial Clock [3000] Tx0 = 0000000000 | Tx0 Decimal = 0 |Tx0_p = 0 | Tx0_n = 1
# main_Count = 9
# I = 8
# UVM_INFO ../sv/env/serdes_driver.sv(104) @ 3005: uvm_test_top.env.agt[2].drv [serdes_driver] After serial drive DRIV_IF.Rx0_p = 1 | DRIV_IF.Rx0_n = 0
# UVM_INFO ../sv/env/serdes_monitor.sv(60) @ 3005: uvm_test_top.env.agt[2].mon [serdes_monitor] ACTIVE SERIAL MONITOR serial data | mon_pkt.Rx0_p = 0 | mon_pkt.Rx0_n = 1
# UVM_INFO ../sv/env/serdes_monitor.sv(73) @ 3005: uvm_test_top.env.agt[3].mon [serdes_monitor] PASSIVE SERIAL MONITOR serial data | mon_pkt.Tx0_p = 0 | mon_pkt.Tx0_n = 1 | count2 = 6
# UVM_INFO ../sv/env/../seq_lib/serdes_sequence.sv(69) @ 3005: uvm_test_top.env.agt[2].seqr@@seq[1] [BODY] Serial transaction: Rx0_p=0, Rx0_n=1
# UVM_INFO ../sv/env/serdes_driver.sv(66) @ 3005: uvm_test_top.env.agt[2].drv [serdes_driver] after get next item req.Tx0 = 1100101001 | req.Rx0_p = 0 | req.Rx0_n = 1
# UVM_INFO ../sv/env/../../tb_top/serdes_top_tb.sv(108) @ 3172: reporter [Serial clock top] FROM TOP SERIAL TIME = 3000
# UVM_INFO ../sv/env/../../tb_top/serdes_top_tb.sv(108) @ 3339: reporter [Serial clock top] FROM TOP SERIAL TIME = 3000
# UVM_INFO ../sv/env/../../sve/serdes_dut.sv(42) @ 3339: reporter [DUT SIPO] Serial clock [3000] Rx0_p = 1 | Rx0_p Decimal = 1 |shift_reg = 0000011100 | shift_reg in decimal = 28 | sipo_main_count = 11
# UVM_INFO ../sv/env/../../sve/serdes_dut.sv(113) @ 3339: reporter [DUT PISO] Serial Clock [3000] Tx0 = 0000000000 | Tx0 Decimal = 0 |Tx0_p = 0 | Tx0_n = 1
# main_Count = 10
# I = 9
# UVM_INFO ../sv/env/serdes_driver.sv(104) @ 3339: uvm_test_top.env.agt[2].drv [serdes_driver] After serial drive DRIV_IF.Rx0_p = 0 | DRIV_IF.Rx0_n = 1
# UVM_INFO ../sv/env/serdes_monitor.sv(73) @ 3339: uvm_test_top.env.agt[3].mon [serdes_monitor] PASSIVE SERIAL MONITOR serial data | mon_pkt.Tx0_p = 0 | mon_pkt.Tx0_n = 1 | count2 = 7
# UVM_INFO ../sv/env/serdes_monitor.sv(60) @ 3339: uvm_test_top.env.agt[2].mon [serdes_monitor] ACTIVE SERIAL MONITOR serial data | mon_pkt.Rx0_p = 0 | mon_pkt.Rx0_n = 1
# UVM_INFO ../sv/env/../seq_lib/serdes_sequence.sv(69) @ 3339: uvm_test_top.env.agt[2].seqr@@seq[1] [BODY] Serial transaction: Rx0_p=1, Rx0_n=0
# UVM_INFO ../sv/env/serdes_driver.sv(66) @ 3339: uvm_test_top.env.agt[2].drv [serdes_driver] after get next item req.Tx0 = 0110000000 | req.Rx0_p = 1 | req.Rx0_n = 0
# UVM_INFO ../sv/env/../../tb_top/serdes_top_tb.sv(108) @ 3506: reporter [Serial clock top] FROM TOP SERIAL TIME = 4000
# UVM_INFO ../sv/env/../../tb_top/serdes_top_tb.sv(124) @ 3667: reporter [Serial clock top] FROM TOP SERIAL TIME = 4000
# UVM_INFO ../sv/env/serdes_driver.sv(112) @ 3667: uvm_test_top.env.agt[0].drv [serdes_driver] After parallel drive DRIV_IF.Tx0 = 1111101110 | DRIV_IF.Tx0 = 1006
# UVM_INFO ../sv/env/serdes_monitor.sv(169) @ 3667: uvm_test_top.env.agt[1].mon [serdes_monitor] TIME PARALLEL PASSIVE = 3667
# UVM_INFO ../sv/env/serdes_monitor.sv(37) @ 3667: uvm_test_top.env.agt[0].mon [serdes_monitor] ACTIVE_PARALLEL_MONITOR mon_pkt.Tx0 = 0000000000 | mon_pkt.Tx0 = 0
