vip/sim/log/serdes_test_7_100/serdes_test_7_100.log
# vsim -c -assertdebug -msgmode both work.tb_opt "+UVM_TESTNAME=serdes_test" "+SPEED=7" "+SERIAL_TRANSACTION_COUNT=5" "+PARALLEL_TRANSACTION_COUNT=5" "+NO_OF_AGENTS=4" -sv_seed 100 -l ../sim/log/serdes_test_7_100/serdes_test_7_100.log -do "add wave -r /*; run -all" 
# Start time: 19:17:07 on Aug 04,2025
# Loading /tmp/vandan-parekh@vandan-parekh-Victus-Gaming-Laptop-15-fa0165TX_dpi_35386/linux_gcc-7.4.0/export_tramp.so
# //  Questa Sim
# //  Version 2021.2_1 linux May 15 2021
# //
# //  Copyright 1991-2021 Mentor Graphics Corporation
# //  All Rights Reserved.
# //
# //  QuestaSim and its associated documentation contain trade
# //  secrets and commercial or financial information that are the property of
# //  Mentor Graphics Corporation and are privileged, confidential,
# //  and exempt from disclosure under the Freedom of Information Act,
# //  5 U.S.C. Section 552. Furthermore, this information
# //  is prohibited from disclosure under the Trade Secrets Act,
# //  18 U.S.C. Section 1905.
# //
# Loading sv_std.std
# Loading work.serdes_interface(fast)
# Loading mtiUvm.uvm_pkg(fast)
# Loading work.serdes_pkg(fast)
# Loading work.serdes_pkg_sv_unit(fast)
# Loading mtiUvm.questa_uvm_pkg(fast)
# Loading work.tb_top(fast)
# Loading work.serdes_interface(fast__2)
# Loading work.sipo_shift_register(fast)
# Loading work.piso_shift_register(fast)
# ** Warning: (vsim-8441) Clocking block output vif.driver_cb.Rx0_p is not legal in this
# or another expression.
#    Time: 0 ps  Iteration: 0  Region: /serdes_pkg::serdes_driver File: ../sv/env/serdes_driver.sv Line: 102
# ** Warning: (vsim-8441) Clocking block output vif.driver_cb.Rx0_n is not legal in this
# or another expression.
#    Time: 0 ps  Iteration: 0  Region: /serdes_pkg::serdes_driver File: ../sv/env/serdes_driver.sv Line: 103
# ** Warning: (vsim-8441) Clocking block output vif.driver_cb.Rx0_p is not legal in this
# or another expression.
#    Time: 0 ps  Iteration: 0  Region: /serdes_pkg::serdes_driver File: ../sv/env/serdes_driver.sv Line: 102
# ** Warning: (vsim-8441) Clocking block output vif.driver_cb.Rx0_n is not legal in this
# or another expression.
#    Time: 0 ps  Iteration: 0  Region: /serdes_pkg::serdes_driver File: ../sv/env/serdes_driver.sv Line: 103
# ** Warning: (vsim-8441) Clocking block output vif.driver_cb.Tx0 is not legal in this
# or another expression.
#    Time: 0 ps  Iteration: 0  Region: /serdes_pkg::serdes_driver File: ../sv/env/serdes_driver.sv Line: 111
# ** Warning: (vsim-8441) Clocking block output vif.driver_cb.Tx0 is not legal in this
# or another expression.
#    Time: 0 ps  Iteration: 0  Region: /serdes_pkg::serdes_driver File: ../sv/env/serdes_driver.sv Line: 111
# ** Warning: (vsim-8441) Clocking block output vif.driver_cb.Tx0 is not legal in this
# or another expression.
#    Time: 0 ps  Iteration: 0  Region: /serdes_pkg::serdes_driver File: ../sv/env/serdes_driver.sv Line: 111
# Compiling /tmp/vandan-parekh@vandan-parekh-Victus-Gaming-Laptop-15-fa0165TX_dpi_35386/linux_gcc-7.4.0/exportwrapper.c
# Loading /tmp/vandan-parekh@vandan-parekh-Victus-Gaming-Laptop-15-fa0165TX_dpi_35386/linux_gcc-7.4.0/vsim_auto_compile.so
# Loading /home/vandan-parekh/Downloads/Mentor_Graphics_QuestaSim_2021.2.1/installation/questasim/uvm-1.2/linux/uvm_dpi.so
# add wave -r /*
#  run -all
# UVM_INFO verilog_src/uvm-1.2/src/base/uvm_root.svh(392) @ 0: reporter [UVM/RELNOTES] 
# ----------------------------------------------------------------
# UVM-1.2
# (C) 2007-2014 Mentor Graphics Corporation
# (C) 2007-2014 Cadence Design Systems, Inc.
# (C) 2006-2014 Synopsys, Inc.
# (C) 2011-2013 Cypress Semiconductor Corp.
# (C) 2013-2014 NVIDIA Corporation
# ----------------------------------------------------------------
# 
#   ***********       IMPORTANT RELEASE NOTES         ************
# 
#   You are using a version of the UVM library that has been compiled
#   with `UVM_NO_DEPRECATED undefined.
#   See http://www.eda.org/svdb/view.php?id=3313 for more details.
# 
#   You are using a version of the UVM library that has been compiled
#   with `UVM_OBJECT_DO_NOT_NEED_CONSTRUCTOR undefined.
#   See http://www.eda.org/svdb/view.php?id=3770 for more details.
# 
#       (Specify +UVM_NO_RELNOTES to turn off this notice)
# 
# UVM_INFO verilog_src/questa_uvm_pkg-1.2/src/questa_uvm_pkg.sv(277) @ 0: reporter [Questa UVM] QUESTA_UVM-1.2.3
# UVM_INFO verilog_src/questa_uvm_pkg-1.2/src/questa_uvm_pkg.sv(278) @ 0: reporter [Questa UVM]  questa_uvm::init(+struct)
# Your Selected Speed is 7 G
# Serdes speed is = 7000000000.000000 Hz
# Transaction count is = 5
# Transaction count is = 5
# Number of agents is = 4
# UVM_INFO ../sv/env/../../tb_top/serdes_top_tb.sv(116) @ 0: reporter [COMMAND LINE] Serial CLK Period = 0.140000 ns
# UVM_INFO ../sv/env/../../tb_top/serdes_top_tb.sv(117) @ 0: reporter [COMMAND LINE] Parallel CLK Period = 1.400000 ns
# UVM_INFO @ 0: reporter [RNTST] Running test serdes_test...
# UVM_INFO ../sv/env/../../sve/serdes_dut.sv(22) @ 0: reporter [DUT SIPO RESET] RESET CONDITION DISPLAY Serial clock [0] Rx0_p = x | Rx0_p Decimal = x |shift_reg = xxxxxxxxxx | shift_reg in decimal = x
# UVM_INFO ../sv/env/../../sve/serdes_dut.sv(107) @ 0: reporter [DUT PISO RESET CONDITION] RESET CONDITION Serial Clock [0] Tx0 = xxxxxxxxxx | Tx0 Decimal = x |Tx0_p = x | Tx0_n = x
# UVM_INFO ../sv/env/../test/serdes_test.sv(46) @ 0: uvm_test_top [serdes_test] serial_clk_period = 0.140000
# UVM_INFO ../sv/env/../test/serdes_test.sv(48) @ 0: uvm_test_top [serdes_test] Drain time = 2800 ps
# UVM_INFO ../sv/env/serdes_agent_config.sv(33) @ 0: reporter [serdes_agent_config] current_agt_no = 0 and is_parallel = 1
# UVM_INFO ../sv/env/serdes_agent_config.sv(33) @ 0: reporter [serdes_agent_config] current_agt_no = 1 and is_parallel = 1
# UVM_INFO ../sv/env/serdes_env.sv(61) @ 0: uvm_test_top.env [serdes_env] agt[0].agt_cfg.is_parallel = 1 | agt[0].agt_cfg.is_active = 1
# UVM_INFO ../sv/env/serdes_env.sv(61) @ 0: uvm_test_top.env [serdes_env] agt[1].agt_cfg.is_parallel = 1 | agt[1].agt_cfg.is_active = 0
# UVM_INFO ../sv/env/serdes_env.sv(61) @ 0: uvm_test_top.env [serdes_env] agt[2].agt_cfg.is_parallel = 0 | agt[2].agt_cfg.is_active = 1
# UVM_INFO ../sv/env/serdes_env.sv(61) @ 0: uvm_test_top.env [serdes_env] agt[3].agt_cfg.is_parallel = 0 | agt[3].agt_cfg.is_active = 0
# UVM_INFO ../sv/env/serdes_driver.sv(27) @ 0: uvm_test_top.env.agt[0].drv [Driver Build Phase] Inside the build phase of driver class
# UVM_INFO ../sv/env/serdes_driver.sv(35) @ 0: uvm_test_top.env.agt[0].drv [serdes_driver] BUILD parallel_driver = 1
# UVM_INFO ../sv/env/../seq_lib/serdes_sequencer.sv(19) @ 0: uvm_test_top.env.agt[0].seqr [Sequencer Build Phase] Inside the build phase of sequencer class
# UVM_INFO ../sv/env/serdes_driver.sv(27) @ 0: uvm_test_top.env.agt[2].drv [Driver Build Phase] Inside the build phase of driver class
# UVM_INFO ../sv/env/serdes_driver.sv(35) @ 0: uvm_test_top.env.agt[2].drv [serdes_driver] BUILD parallel_driver = 0
# UVM_INFO ../sv/env/../seq_lib/serdes_sequencer.sv(19) @ 0: uvm_test_top.env.agt[2].seqr [Sequencer Build Phase] Inside the build phase of sequencer class
# UVM_INFO ../sv/env/serdes_driver.sv(42) @ 0: uvm_test_top.env.agt[0].drv [Driver Connect Phase] Inside the Connect Phase of driver class
# UVM_INFO ../sv/env/serdes_driver.sv(42) @ 0: uvm_test_top.env.agt[2].drv [Driver Connect Phase] Inside the Connect Phase of driver class
# UVM_INFO ../sv/env/serdes_driver.sv(49) @ 0: uvm_test_top.env.agt[0].drv [Driver EOE Phase] Inside the EOE Phase of driver class
# UVM_INFO ../sv/env/serdes_driver.sv(49) @ 0: uvm_test_top.env.agt[2].drv [Driver EOE Phase] Inside the EOE Phase of driver class
# UVM_INFO ../sv/env/../test/serdes_test.sv(69) @ 0: uvm_test_top [Driver EOE Phase] Inside the EOE Phase of driver class
# UVM_INFO verilog_src/uvm-1.2/src/base/uvm_root.svh(579) @ 0: reporter [UVMTOP] UVM testbench topology:
# ---------------------------------------------------------------------
# Name                           Type                       Size  Value
# ---------------------------------------------------------------------
# uvm_test_top                   serdes_test                -     @385 
#   env                          serdes_env                 -     @415 
#     agt[0]                     serdes_agent               -     @444 
#       drv                      serdes_driver              -     @501 
#         rsp_port               uvm_analysis_port          -     @518 
#         seq_item_port          uvm_seq_item_pull_port     -     @509 
#       mon                      serdes_monitor             -     @650 
#         packet_collected_port  uvm_analysis_port          -     @658 
#       seqr                     serdes_sequencer           -     @527 
#         rsp_export             uvm_analysis_export        -     @535 
#         seq_item_export        uvm_seq_item_pull_imp      -     @641 
#         arbitration_queue      array                      0     -    
#         lock_queue             array                      0     -    
#         num_last_reqs          integral                   32    'd1  
#         num_last_rsps          integral                   32    'd1  
#     agt[1]                     serdes_agent               -     @454 
#       mon                      serdes_monitor             -     @681 
#         packet_collected_port  uvm_analysis_port          -     @689 
#     agt[2]                     serdes_agent               -     @464 
#       drv                      serdes_driver              -     @700 
#         rsp_port               uvm_analysis_port          -     @717 
#         seq_item_port          uvm_seq_item_pull_port     -     @708 
#       mon                      serdes_monitor             -     @849 
#         packet_collected_port  uvm_analysis_port          -     @857 
#       seqr                     serdes_sequencer           -     @726 
#         rsp_export             uvm_analysis_export        -     @734 
#         seq_item_export        uvm_seq_item_pull_imp      -     @840 
#         arbitration_queue      array                      0     -    
#         lock_queue             array                      0     -    
#         num_last_reqs          integral                   32    'd1  
#         num_last_rsps          integral                   32    'd1  
#     agt[3]                     serdes_agent               -     @474 
#       mon                      serdes_monitor             -     @880 
#         packet_collected_port  uvm_analysis_port          -     @888 
#     scb[0]                     serdes_scoreboard          -     @484 
#       actual_imp               uvm_analysis_imp_actual    -     @907 
#       expected_imp             uvm_analysis_imp_expected  -     @898 
#     scb[1]                     serdes_scoreboard          -     @492 
#       actual_imp               uvm_analysis_imp_actual    -     @925 
#       expected_imp             uvm_analysis_imp_expected  -     @916 
# ---------------------------------------------------------------------
# 
# UVM_INFO ../sv/env/../test/serdes_test.sv(82) @ 0: uvm_test_top [serdes_test] seq[0].is_parallel = 1 | env.agt[0].agt_cfg.is_parallel = 1
# UVM_INFO ../sv/env/../test/serdes_test.sv(82) @ 0: uvm_test_top [serdes_test] seq[1].is_parallel = 0 | env.agt[1].agt_cfg.is_parallel = 0
# UVM_INFO ../sv/env/../seq_lib/serdes_sequence.sv(34) @ 0: uvm_test_top.env.agt[0].seqr@@seq[0] [PRE-BODY] INSIDE PRE-BODY TASK
# UVM_INFO ../sv/env/../seq_lib/serdes_sequence.sv(35) @ 0: uvm_test_top.env.agt[0].seqr@@seq[0] [PRE_BODY] serial_transaction_count=5, parallel_transaction_count = 5, is_parallel=1
# UVM_INFO ../sv/env/../seq_lib/serdes_sequence.sv(34) @ 0: uvm_test_top.env.agt[2].seqr@@seq[1] [PRE-BODY] INSIDE PRE-BODY TASK
# UVM_INFO ../sv/env/../seq_lib/serdes_sequence.sv(35) @ 0: uvm_test_top.env.agt[2].seqr@@seq[1] [PRE_BODY] serial_transaction_count=5, parallel_transaction_count = 5, is_parallel=0
# UVM_ERROR ../sv/env/serdes_interface.sv(127) @ 0: reporter [ASSERT_CLOCKS] Clocks active during reset
# UVM_ERROR ../sv/env/serdes_interface.sv(60) @ 0: reporter [ASSERT_RESET] Reset values for signals not met during serdes_reset high
# UVM_INFO ../sv/env/../../sve/serdes_dut.sv(42) @ 140: reporter [DUT SIPO] Serial clock [0] Rx0_p = 0 | Rx0_p Decimal = 0 |shift_reg = 0000000000 | shift_reg in decimal = 0 | sipo_main_count = 2
# UVM_INFO ../sv/env/serdes_monitor.sv(158) @ 140: uvm_test_top.env.agt[0].mon [serdes_monitor] TIME PARALLEL ACTIVE = 140
# UVM_INFO ../sv/env/../seq_lib/serdes_sequence.sv(69) @ 140: uvm_test_top.env.agt[2].seqr@@seq[1] [BODY] Serial transaction: Rx0_p=0, Rx0_n=1
# UVM_INFO ../sv/env/../seq_lib/serdes_sequence.sv(48) @ 140: uvm_test_top.env.agt[0].seqr@@seq[0] [BODY] Parallel transaction: Tx0 in Binary=0010001111 | Tx0 in Decimal = 143
# UVM_INFO ../sv/env/serdes_driver.sv(66) @ 140: uvm_test_top.env.agt[2].drv [serdes_driver] after get next item req.Tx0 = 1100000101 | req.Rx0_p = 0 | req.Rx0_n = 1
# UVM_INFO ../sv/env/serdes_driver.sv(66) @ 140: uvm_test_top.env.agt[0].drv [serdes_driver] after get next item req.Tx0 = 0010001111 | req.Rx0_p = 1 | req.Rx0_n = 0
# UVM_INFO ../sv/env/../../tb_top/serdes_top_tb.sv(125) @ 210: reporter [Serial clock top] FROM TOP SERIAL TIME = 0
# UVM_INFO ../sv/env/../../tb_top/serdes_top_tb.sv(125) @ 280: reporter [Serial clock top] FROM TOP SERIAL TIME = 0
# UVM_INFO ../sv/env/../../sve/serdes_dut.sv(42) @ 280: reporter [DUT SIPO] Serial clock [0] Rx0_p = 0 | Rx0_p Decimal = 0 |shift_reg = 0000000000 | shift_reg in decimal = 0 | sipo_main_count = 3
# UVM_INFO ../sv/env/../../sve/serdes_dut.sv(113) @ 280: reporter [DUT PISO] Serial Clock [0] Tx0 = 0000000000 | Tx0 Decimal = 0 |Tx0_p = 0 | Tx0_n = 1
# main_Count = 2
# I = 1
# UVM_INFO ../sv/env/serdes_driver.sv(104) @ 280: uvm_test_top.env.agt[2].drv [serdes_driver] After serial drive DRIV_IF.Rx0_p = 0 | DRIV_IF.Rx0_n = 1
# UVM_INFO ../sv/env/serdes_monitor.sv(189) @ 280: uvm_test_top.env.agt[3].mon [serdes_monitor] TIME SERIAL = 280
# UVM_INFO ../sv/env/../seq_lib/serdes_sequence.sv(69) @ 280: uvm_test_top.env.agt[2].seqr@@seq[1] [BODY] Serial transaction: Rx0_p=0, Rx0_n=1
# UVM_INFO ../sv/env/serdes_driver.sv(66) @ 280: uvm_test_top.env.agt[2].drv [serdes_driver] after get next item req.Tx0 = 0001000001 | req.Rx0_p = 0 | req.Rx0_n = 1
# UVM_INFO ../sv/env/../../tb_top/serdes_top_tb.sv(125) @ 350: reporter [Serial clock top] FROM TOP SERIAL TIME = 0
# UVM_INFO ../sv/env/../../tb_top/serdes_top_tb.sv(125) @ 420: reporter [Serial clock top] FROM TOP SERIAL TIME = 0
# UVM_INFO ../sv/env/../../sve/serdes_dut.sv(42) @ 420: reporter [DUT SIPO] Serial clock [0] Rx0_p = 0 | Rx0_p Decimal = 0 |shift_reg = 0000000000 | shift_reg in decimal = 0 | sipo_main_count = 4
# UVM_INFO ../sv/env/../../sve/serdes_dut.sv(113) @ 420: reporter [DUT PISO] Serial Clock [0] Tx0 = 0000000000 | Tx0 Decimal = 0 |Tx0_p = 0 | Tx0_n = 1
# main_Count = 3
# I = 2
# UVM_INFO ../sv/env/serdes_driver.sv(104) @ 420: uvm_test_top.env.agt[2].drv [serdes_driver] After serial drive DRIV_IF.Rx0_p = 0 | DRIV_IF.Rx0_n = 1
# UVM_INFO ../sv/env/serdes_monitor.sv(182) @ 420: uvm_test_top.env.agt[2].mon [serdes_monitor] TIME SERIAL ACTIVE = 420
# UVM_INFO ../sv/env/serdes_monitor.sv(73) @ 420: uvm_test_top.env.agt[3].mon [serdes_monitor] PASSIVE SERIAL MONITOR serial data | mon_pkt.Tx0_p = 0 | mon_pkt.Tx0_n = 1 | count2 = 0
# UVM_INFO ../sv/env/../seq_lib/serdes_sequence.sv(69) @ 420: uvm_test_top.env.agt[2].seqr@@seq[1] [BODY] Serial transaction: Rx0_p=1, Rx0_n=0
# UVM_INFO ../sv/env/serdes_driver.sv(66) @ 420: uvm_test_top.env.agt[2].drv [serdes_driver] after get next item req.Tx0 = 0001000100 | req.Rx0_p = 1 | req.Rx0_n = 0
# UVM_INFO ../sv/env/../../tb_top/serdes_top_tb.sv(125) @ 490: reporter [Serial clock top] FROM TOP SERIAL TIME = 0
# UVM_INFO ../sv/env/../../tb_top/serdes_top_tb.sv(125) @ 560: reporter [Serial clock top] FROM TOP SERIAL TIME = 1000
# UVM_INFO ../sv/env/../../sve/serdes_dut.sv(42) @ 560: reporter [DUT SIPO] Serial clock [1000] Rx0_p = 0 | Rx0_p Decimal = 0 |shift_reg = 0000000000 | shift_reg in decimal = 0 | sipo_main_count = 5
# UVM_INFO ../sv/env/../../sve/serdes_dut.sv(113) @ 560: reporter [DUT PISO] Serial Clock [1000] Tx0 = 0000000000 | Tx0 Decimal = 0 |Tx0_p = 0 | Tx0_n = 1
# main_Count = 4
# I = 3
# UVM_INFO ../sv/env/serdes_driver.sv(104) @ 560: uvm_test_top.env.agt[2].drv [serdes_driver] After serial drive DRIV_IF.Rx0_p = 1 | DRIV_IF.Rx0_n = 0
# UVM_INFO ../sv/env/serdes_monitor.sv(73) @ 560: uvm_test_top.env.agt[3].mon [serdes_monitor] PASSIVE SERIAL MONITOR serial data | mon_pkt.Tx0_p = 0 | mon_pkt.Tx0_n = 1 | count2 = 1
# UVM_INFO ../sv/env/serdes_monitor.sv(60) @ 560: uvm_test_top.env.agt[2].mon [serdes_monitor] ACTIVE SERIAL MONITOR serial data | mon_pkt.Rx0_p = 0 | mon_pkt.Rx0_n = 1
# UVM_INFO ../sv/env/../seq_lib/serdes_sequence.sv(69) @ 560: uvm_test_top.env.agt[2].seqr@@seq[1] [BODY] Serial transaction: Rx0_p=0, Rx0_n=1
# UVM_INFO ../sv/env/serdes_driver.sv(66) @ 560: uvm_test_top.env.agt[2].drv [serdes_driver] after get next item req.Tx0 = 0101011100 | req.Rx0_p = 0 | req.Rx0_n = 1
# UVM_INFO ../sv/env/../../tb_top/serdes_top_tb.sv(125) @ 630: reporter [Serial clock top] FROM TOP SERIAL TIME = 1000
# UVM_INFO ../sv/env/../../tb_top/serdes_top_tb.sv(125) @ 700: reporter [Serial clock top] FROM TOP SERIAL TIME = 1000
# UVM_INFO ../sv/env/../../sve/serdes_dut.sv(42) @ 700: reporter [DUT SIPO] Serial clock [1000] Rx0_p = 1 | Rx0_p Decimal = 1 |shift_reg = 0000000000 | shift_reg in decimal = 0 | sipo_main_count = 6
# UVM_INFO ../sv/env/../../sve/serdes_dut.sv(113) @ 700: reporter [DUT PISO] Serial Clock [1000] Tx0 = 0000000000 | Tx0 Decimal = 0 |Tx0_p = 0 | Tx0_n = 1
# main_Count = 5
# I = 4
# UVM_INFO ../sv/env/serdes_driver.sv(104) @ 700: uvm_test_top.env.agt[2].drv [serdes_driver] After serial drive DRIV_IF.Rx0_p = 0 | DRIV_IF.Rx0_n = 1
# UVM_INFO ../sv/env/serdes_monitor.sv(60) @ 700: uvm_test_top.env.agt[2].mon [serdes_monitor] ACTIVE SERIAL MONITOR serial data | mon_pkt.Rx0_p = 0 | mon_pkt.Rx0_n = 1
# UVM_INFO ../sv/env/serdes_monitor.sv(73) @ 700: uvm_test_top.env.agt[3].mon [serdes_monitor] PASSIVE SERIAL MONITOR serial data | mon_pkt.Tx0_p = 0 | mon_pkt.Tx0_n = 1 | count2 = 2
# UVM_INFO ../sv/env/../seq_lib/serdes_sequence.sv(69) @ 700: uvm_test_top.env.agt[2].seqr@@seq[1] [BODY] Serial transaction: Rx0_p=1, Rx0_n=0
# UVM_INFO ../sv/env/serdes_driver.sv(66) @ 700: uvm_test_top.env.agt[2].drv [serdes_driver] after get next item req.Tx0 = 1011010001 | req.Rx0_p = 1 | req.Rx0_n = 0
# UVM_INFO ../sv/env/../../tb_top/serdes_top_tb.sv(125) @ 770: reporter [Serial clock top] FROM TOP SERIAL TIME = 1000
# UVM_INFO ../sv/env/../../tb_top/serdes_top_tb.sv(141) @ 840: reporter [Serial clock top] FROM TOP SERIAL TIME = 1000
# UVM_INFO ../sv/env/../../tb_top/serdes_top_tb.sv(125) @ 840: reporter [Serial clock top] FROM TOP SERIAL TIME = 1000
# UVM_INFO ../sv/env/../../sve/serdes_dut.sv(42) @ 840: reporter [DUT SIPO] Serial clock [1000] Rx0_p = 0 | Rx0_p Decimal = 0 |shift_reg = 0000000001 | shift_reg in decimal = 1 | sipo_main_count = 7
# UVM_INFO ../sv/env/../../sve/serdes_dut.sv(113) @ 840: reporter [DUT PISO] Serial Clock [1000] Tx0 = 0000000000 | Tx0 Decimal = 0 |Tx0_p = 0 | Tx0_n = 1
# main_Count = 6
# I = 5
# UVM_INFO ../sv/env/serdes_driver.sv(104) @ 840: uvm_test_top.env.agt[2].drv [serdes_driver] After serial drive DRIV_IF.Rx0_p = 1 | DRIV_IF.Rx0_n = 0
# UVM_INFO ../sv/env/serdes_monitor.sv(73) @ 840: uvm_test_top.env.agt[3].mon [serdes_monitor] PASSIVE SERIAL MONITOR serial data | mon_pkt.Tx0_p = 0 | mon_pkt.Tx0_n = 1 | count2 = 3
# UVM_INFO ../sv/env/serdes_monitor.sv(60) @ 840: uvm_test_top.env.agt[2].mon [serdes_monitor] ACTIVE SERIAL MONITOR serial data | mon_pkt.Rx0_p = 1 | mon_pkt.Rx0_n = 0
# UVM_INFO ../sv/env/../seq_lib/serdes_sequence.sv(69) @ 840: uvm_test_top.env.agt[2].seqr@@seq[1] [BODY] Serial transaction: Rx0_p=0, Rx0_n=1
# UVM_INFO ../sv/env/serdes_driver.sv(66) @ 840: uvm_test_top.env.agt[2].drv [serdes_driver] after get next item req.Tx0 = 0011100001 | req.Rx0_p = 0 | req.Rx0_n = 1
# UVM_INFO ../sv/env/../../tb_top/serdes_top_tb.sv(125) @ 910: reporter [Serial clock top] FROM TOP SERIAL TIME = 1000
# UVM_INFO ../sv/env/../../tb_top/serdes_top_tb.sv(125) @ 980: reporter [Serial clock top] FROM TOP SERIAL TIME = 1000
# UVM_INFO ../sv/env/../../sve/serdes_dut.sv(42) @ 980: reporter [DUT SIPO] Serial clock [1000] Rx0_p = 1 | Rx0_p Decimal = 1 |shift_reg = 0000000010 | shift_reg in decimal = 2 | sipo_main_count = 8
# UVM_INFO ../sv/env/../../sve/serdes_dut.sv(113) @ 980: reporter [DUT PISO] Serial Clock [1000] Tx0 = 0000000000 | Tx0 Decimal = 0 |Tx0_p = 0 | Tx0_n = 1
# main_Count = 7
# I = 6
# UVM_INFO ../sv/env/serdes_driver.sv(104) @ 980: uvm_test_top.env.agt[2].drv [serdes_driver] After serial drive DRIV_IF.Rx0_p = 0 | DRIV_IF.Rx0_n = 1
# UVM_INFO ../sv/env/serdes_monitor.sv(60) @ 980: uvm_test_top.env.agt[2].mon [serdes_monitor] ACTIVE SERIAL MONITOR serial data | mon_pkt.Rx0_p = 0 | mon_pkt.Rx0_n = 1
# UVM_INFO ../sv/env/serdes_monitor.sv(73) @ 980: uvm_test_top.env.agt[3].mon [serdes_monitor] PASSIVE SERIAL MONITOR serial data | mon_pkt.Tx0_p = 0 | mon_pkt.Tx0_n = 1 | count2 = 4
# UVM_INFO ../sv/env/../seq_lib/serdes_sequence.sv(69) @ 980: uvm_test_top.env.agt[2].seqr@@seq[1] [BODY] Serial transaction: Rx0_p=0, Rx0_n=1
# UVM_INFO ../sv/env/serdes_driver.sv(66) @ 980: uvm_test_top.env.agt[2].drv [serdes_driver] after get next item req.Tx0 = 0000110111 | req.Rx0_p = 0 | req.Rx0_n = 1
# UVM_INFO ../sv/env/../../tb_top/serdes_top_tb.sv(125) @ 1050: reporter [Serial clock top] FROM TOP SERIAL TIME = 1000
# UVM_INFO ../sv/env/../../tb_top/serdes_top_tb.sv(125) @ 1120: reporter [Serial clock top] FROM TOP SERIAL TIME = 1000
# UVM_INFO ../sv/env/../../sve/serdes_dut.sv(42) @ 1120: reporter [DUT SIPO] Serial clock [1000] Rx0_p = 0 | Rx0_p Decimal = 0 |shift_reg = 0000000101 | shift_reg in decimal = 5 | sipo_main_count = 9
# UVM_INFO ../sv/env/../../sve/serdes_dut.sv(113) @ 1120: reporter [DUT PISO] Serial Clock [1000] Tx0 = 0000000000 | Tx0 Decimal = 0 |Tx0_p = 0 | Tx0_n = 1
# main_Count = 8
# I = 7
# UVM_INFO ../sv/env/serdes_driver.sv(104) @ 1120: uvm_test_top.env.agt[2].drv [serdes_driver] After serial drive DRIV_IF.Rx0_p = 0 | DRIV_IF.Rx0_n = 1
# UVM_INFO ../sv/env/serdes_monitor.sv(73) @ 1120: uvm_test_top.env.agt[3].mon [serdes_monitor] PASSIVE SERIAL MONITOR serial data | mon_pkt.Tx0_p = 0 | mon_pkt.Tx0_n = 1 | count2 = 5
# UVM_INFO ../sv/env/serdes_monitor.sv(60) @ 1120: uvm_test_top.env.agt[2].mon [serdes_monitor] ACTIVE SERIAL MONITOR serial data | mon_pkt.Rx0_p = 1 | mon_pkt.Rx0_n = 0
# UVM_INFO ../sv/env/../seq_lib/serdes_sequence.sv(69) @ 1120: uvm_test_top.env.agt[2].seqr@@seq[1] [BODY] Serial transaction: Rx0_p=1, Rx0_n=0
# UVM_INFO ../sv/env/serdes_driver.sv(66) @ 1120: uvm_test_top.env.agt[2].drv [serdes_driver] after get next item req.Tx0 = 1111001100 | req.Rx0_p = 1 | req.Rx0_n = 0
# UVM_INFO ../sv/env/../../tb_top/serdes_top_tb.sv(125) @ 1190: reporter [Serial clock top] FROM TOP SERIAL TIME = 1000
# UVM_INFO ../sv/env/../../tb_top/serdes_top_tb.sv(125) @ 1260: reporter [Serial clock top] FROM TOP SERIAL TIME = 1000
# UVM_INFO ../sv/env/../../sve/serdes_dut.sv(42) @ 1260: reporter [DUT SIPO] Serial clock [1000] Rx0_p = 0 | Rx0_p Decimal = 0 |shift_reg = 0000001010 | shift_reg in decimal = 10 | sipo_main_count = 10
# UVM_INFO ../sv/env/../../sve/serdes_dut.sv(113) @ 1260: reporter [DUT PISO] Serial Clock [1000] Tx0 = 0000000000 | Tx0 Decimal = 0 |Tx0_p = 0 | Tx0_n = 1
# main_Count = 9
# I = 8
# UVM_INFO ../sv/env/serdes_driver.sv(104) @ 1260: uvm_test_top.env.agt[2].drv [serdes_driver] After serial drive DRIV_IF.Rx0_p = 1 | DRIV_IF.Rx0_n = 0
# UVM_INFO ../sv/env/serdes_monitor.sv(60) @ 1260: uvm_test_top.env.agt[2].mon [serdes_monitor] ACTIVE SERIAL MONITOR serial data | mon_pkt.Rx0_p = 0 | mon_pkt.Rx0_n = 1
# UVM_INFO ../sv/env/serdes_monitor.sv(73) @ 1260: uvm_test_top.env.agt[3].mon [serdes_monitor] PASSIVE SERIAL MONITOR serial data | mon_pkt.Tx0_p = 0 | mon_pkt.Tx0_n = 1 | count2 = 6
# UVM_INFO ../sv/env/../seq_lib/serdes_sequence.sv(69) @ 1260: uvm_test_top.env.agt[2].seqr@@seq[1] [BODY] Serial transaction: Rx0_p=1, Rx0_n=0
# UVM_INFO ../sv/env/serdes_driver.sv(66) @ 1260: uvm_test_top.env.agt[2].drv [serdes_driver] after get next item req.Tx0 = 0111000011 | req.Rx0_p = 1 | req.Rx0_n = 0
# UVM_INFO ../sv/env/../../tb_top/serdes_top_tb.sv(125) @ 1330: reporter [Serial clock top] FROM TOP SERIAL TIME = 1000
# UVM_INFO ../sv/env/../../tb_top/serdes_top_tb.sv(125) @ 1400: reporter [Serial clock top] FROM TOP SERIAL TIME = 1000
# UVM_INFO ../sv/env/../../sve/serdes_dut.sv(42) @ 1400: reporter [DUT SIPO] Serial clock [1000] Rx0_p = 1 | Rx0_p Decimal = 1 |shift_reg = 0000010100 | shift_reg in decimal = 20 | sipo_main_count = 11
# UVM_INFO ../sv/env/../../sve/serdes_dut.sv(113) @ 1400: reporter [DUT PISO] Serial Clock [1000] Tx0 = 0000000000 | Tx0 Decimal = 0 |Tx0_p = 0 | Tx0_n = 1
# main_Count = 10
# I = 9
# UVM_INFO ../sv/env/serdes_driver.sv(104) @ 1400: uvm_test_top.env.agt[2].drv [serdes_driver] After serial drive DRIV_IF.Rx0_p = 1 | DRIV_IF.Rx0_n = 0
# UVM_INFO ../sv/env/serdes_monitor.sv(73) @ 1400: uvm_test_top.env.agt[3].mon [serdes_monitor] PASSIVE SERIAL MONITOR serial data | mon_pkt.Tx0_p = 0 | mon_pkt.Tx0_n = 1 | count2 = 7
# UVM_INFO ../sv/env/serdes_monitor.sv(60) @ 1400: uvm_test_top.env.agt[2].mon [serdes_monitor] ACTIVE SERIAL MONITOR serial data | mon_pkt.Rx0_p = 0 | mon_pkt.Rx0_n = 1
# UVM_INFO ../sv/env/../seq_lib/serdes_sequence.sv(69) @ 1400: uvm_test_top.env.agt[2].seqr@@seq[1] [BODY] Serial transaction: Rx0_p=0, Rx0_n=1
# UVM_INFO ../sv/env/serdes_driver.sv(66) @ 1400: uvm_test_top.env.agt[2].drv [serdes_driver] after get next item req.Tx0 = 1111100111 | req.Rx0_p = 0 | req.Rx0_n = 1
# UVM_INFO ../sv/env/../../tb_top/serdes_top_tb.sv(125) @ 1470: reporter [Serial clock top] FROM TOP SERIAL TIME = 1000
# UVM_INFO ../sv/env/../../tb_top/serdes_top_tb.sv(141) @ 1540: reporter [Serial clock top] FROM TOP SERIAL TIME = 2000
# UVM_INFO ../sv/env/../../tb_top/serdes_top_tb.sv(125) @ 1540: reporter [Serial clock top] FROM TOP SERIAL TIME = 2000
